ISO-10303-21;
HEADER;
FILE_DESCRIPTION(('FreeCAD Model'),'2;1');
FILE_NAME(
'/home/fandres/git/3D-Printing/Extruder_Titan_piece-inductive_
sensor/Extruder_Titan_piece-inductive_sensor.step','2017-08-21T21:39:18'
  ,('Author'),(''),'Open CASCADE STEP processor 6.8','FreeCAD','Unknown'
  );
FILE_SCHEMA(('AUTOMOTIVE_DESIGN_CC2 { 1 2 10303 214 -1 1 5 4 }'));
ENDSEC;
DATA;
#1 = APPLICATION_PROTOCOL_DEFINITION('committee draft',
  'automotive_design',1997,#2);
#2 = APPLICATION_CONTEXT(
  'core data for automotive mechanical design processes');
#3 = SHAPE_DEFINITION_REPRESENTATION(#4,#10);
#4 = PRODUCT_DEFINITION_SHAPE('','',#5);
#5 = PRODUCT_DEFINITION('design','',#6,#9);
#6 = PRODUCT_DEFINITION_FORMATION('','',#7);
#7 = PRODUCT('ASSEMBLY','ASSEMBLY','',(#8));
#8 = MECHANICAL_CONTEXT('',#2,'mechanical');
#9 = PRODUCT_DEFINITION_CONTEXT('part definition',#2,'design');
#10 = SHAPE_REPRESENTATION('',(#11,#15),#19);
#11 = AXIS2_PLACEMENT_3D('',#12,#13,#14);
#12 = CARTESIAN_POINT('',(0.,0.,0.));
#13 = DIRECTION('',(0.,0.,1.));
#14 = DIRECTION('',(1.,0.,-0.));
#15 = AXIS2_PLACEMENT_3D('',#16,#17,#18);
#16 = CARTESIAN_POINT('',(0.,0.,0.));
#17 = DIRECTION('',(0.,0.,1.));
#18 = DIRECTION('',(1.,0.,0.));
#19 = ( GEOMETRIC_REPRESENTATION_CONTEXT(3) 
GLOBAL_UNCERTAINTY_ASSIGNED_CONTEXT((#23)) GLOBAL_UNIT_ASSIGNED_CONTEXT(
(#20,#21,#22)) REPRESENTATION_CONTEXT('Context #1',
  '3D Context with UNIT and UNCERTAINTY') );
#20 = ( LENGTH_UNIT() NAMED_UNIT(*) SI_UNIT(.MILLI.,.METRE.) );
#21 = ( NAMED_UNIT(*) PLANE_ANGLE_UNIT() SI_UNIT($,.RADIAN.) );
#22 = ( NAMED_UNIT(*) SI_UNIT($,.STERADIAN.) SOLID_ANGLE_UNIT() );
#23 = UNCERTAINTY_MEASURE_WITH_UNIT(LENGTH_MEASURE(5.E-07),#20,
  'distance_accuracy_value','confusion accuracy');
#24 = PRODUCT_TYPE('part',$,(#7));
#25 = ADVANCED_BREP_SHAPE_REPRESENTATION('',(#11,#26),#1028);
#26 = MANIFOLD_SOLID_BREP('',#27);
#27 = CLOSED_SHELL('',(#28,#68,#147,#198,#222,#293,#310,#336,#369,#453,
    #470,#487,#521,#556,#629,#640,#673,#690,#707,#753,#778,#847,#895,
    #912,#960,#985,#997,#1014));
#28 = ADVANCED_FACE('',(#29),#63,.T.);
#29 = FACE_BOUND('',#30,.T.);
#30 = EDGE_LOOP('',(#31,#41,#49,#57));
#31 = ORIENTED_EDGE('',*,*,#32,.F.);
#32 = EDGE_CURVE('',#33,#35,#37,.T.);
#33 = VERTEX_POINT('',#34);
#34 = CARTESIAN_POINT('',(25.5,30.020999908447,-45.47412261962));
#35 = VERTEX_POINT('',#36);
#36 = CARTESIAN_POINT('',(25.5,30.020999908447,-32.87412261962));
#37 = LINE('',#38,#39);
#38 = CARTESIAN_POINT('',(25.5,30.020999908447,-55.97846221923));
#39 = VECTOR('',#40,1.);
#40 = DIRECTION('',(-4.613047254803E-16,2.22044604925E-16,1.));
#41 = ORIENTED_EDGE('',*,*,#42,.T.);
#42 = EDGE_CURVE('',#33,#43,#45,.T.);
#43 = VERTEX_POINT('',#44);
#44 = CARTESIAN_POINT('',(25.5,27.020999908447,-45.47412261962));
#45 = LINE('',#46,#47);
#46 = CARTESIAN_POINT('',(25.5,30.020999908447,-45.47412261962));
#47 = VECTOR('',#48,1.);
#48 = DIRECTION('',(2.586166254945E-30,-1.,-5.384154751156E-15));
#49 = ORIENTED_EDGE('',*,*,#50,.T.);
#50 = EDGE_CURVE('',#43,#51,#53,.T.);
#51 = VERTEX_POINT('',#52);
#52 = CARTESIAN_POINT('',(25.5,27.020999908447,-32.87412261962));
#53 = LINE('',#54,#55);
#54 = CARTESIAN_POINT('',(25.5,27.020999908447,-55.97846221923));
#55 = VECTOR('',#56,1.);
#56 = DIRECTION('',(-4.613047254803E-16,2.22044604925E-16,1.));
#57 = ORIENTED_EDGE('',*,*,#58,.F.);
#58 = EDGE_CURVE('',#35,#51,#59,.T.);
#59 = LINE('',#60,#61);
#60 = CARTESIAN_POINT('',(25.5,30.020999908447,-32.87412261962));
#61 = VECTOR('',#62,1.);
#62 = DIRECTION('',(0.,-1.,2.22044604925E-16));
#63 = PLANE('',#64);
#64 = AXIS2_PLACEMENT_3D('',#65,#66,#67);
#65 = CARTESIAN_POINT('',(25.5,30.020999908447,-55.97846221923));
#66 = DIRECTION('',(-1.,-1.024302255193E-31,-4.613047254803E-16));
#67 = DIRECTION('',(-4.613047254803E-16,2.22044604925E-16,1.));
#68 = ADVANCED_FACE('',(#69,#120,#131),#142,.F.);
#69 = FACE_BOUND('',#70,.F.);
#70 = EDGE_LOOP('',(#71,#72,#81,#89,#97,#106,#114));
#71 = ORIENTED_EDGE('',*,*,#32,.F.);
#72 = ORIENTED_EDGE('',*,*,#73,.T.);
#73 = EDGE_CURVE('',#33,#74,#76,.T.);
#74 = VERTEX_POINT('',#75);
#75 = CARTESIAN_POINT('',(25.1,30.020999908447,-45.87412261962));
#76 = CIRCLE('',#77,0.4);
#77 = AXIS2_PLACEMENT_3D('',#78,#79,#80);
#78 = CARTESIAN_POINT('',(25.1,30.020999908447,-45.47412261962));
#79 = DIRECTION('',(-2.586166254945E-30,1.,5.384154751156E-15));
#80 = DIRECTION('',(0.,5.384154751156E-15,-1.));
#81 = ORIENTED_EDGE('',*,*,#82,.T.);
#82 = EDGE_CURVE('',#74,#83,#85,.T.);
#83 = VERTEX_POINT('',#84);
#84 = CARTESIAN_POINT('',(22.7,30.020999908447,-45.87412261962));
#85 = LINE('',#86,#87);
#86 = CARTESIAN_POINT('',(25.5,30.020999908447,-45.87412261962));
#87 = VECTOR('',#88,1.);
#88 = DIRECTION('',(-1.,0.,0.));
#89 = ORIENTED_EDGE('',*,*,#90,.T.);
#90 = EDGE_CURVE('',#83,#91,#93,.T.);
#91 = VERTEX_POINT('',#92);
#92 = CARTESIAN_POINT('',(22.700000000003,30.020999908447,
    -68.97846221923));
#93 = LINE('',#94,#95);
#94 = CARTESIAN_POINT('',(22.7,30.020999908447,-45.87412261962));
#95 = VECTOR('',#96,1.);
#96 = DIRECTION('',(0.,-2.22044604925E-16,-1.));
#97 = ORIENTED_EDGE('',*,*,#98,.F.);
#98 = EDGE_CURVE('',#99,#91,#101,.T.);
#99 = VERTEX_POINT('',#100);
#100 = CARTESIAN_POINT('',(51.999999999996,30.020999908447,-44.876853));
#101 = CIRCLE('',#102,29.860596238997);
#102 = AXIS2_PLACEMENT_3D('',#103,#104,#105);
#103 = CARTESIAN_POINT('',(22.700012350603,30.020999908447,
    -39.11786598024));
#104 = DIRECTION('',(-2.198277123403E-31,1.,-2.22044604925E-16));
#105 = DIRECTION('',(-1.,-2.198277123403E-31,4.379057701015E-47));
#106 = ORIENTED_EDGE('',*,*,#107,.T.);
#107 = EDGE_CURVE('',#99,#108,#110,.T.);
#108 = VERTEX_POINT('',#109);
#109 = CARTESIAN_POINT('',(52.,30.020999908447,-32.87412261962));
#110 = LINE('',#111,#112);
#111 = CARTESIAN_POINT('',(52.,30.020999908447,-62.97846221923));
#112 = VECTOR('',#113,1.);
#113 = DIRECTION('',(0.,2.22044604925E-16,1.));
#114 = ORIENTED_EDGE('',*,*,#115,.F.);
#115 = EDGE_CURVE('',#35,#108,#116,.T.);
#116 = LINE('',#117,#118);
#117 = CARTESIAN_POINT('',(25.5,30.020999908447,-32.87412261962));
#118 = VECTOR('',#119,1.);
#119 = DIRECTION('',(1.,5.953667209215E-32,2.681293342491E-16));
#120 = FACE_BOUND('',#121,.F.);
#121 = EDGE_LOOP('',(#122));
#122 = ORIENTED_EDGE('',*,*,#123,.T.);
#123 = EDGE_CURVE('',#124,#124,#126,.T.);
#124 = VERTEX_POINT('',#125);
#125 = CARTESIAN_POINT('',(28.025607,30.020999908447,-44.148964));
#126 = CIRCLE('',#127,1.6);
#127 = AXIS2_PLACEMENT_3D('',#128,#129,#130);
#128 = CARTESIAN_POINT('',(29.625607,30.020999908447,-44.148964));
#129 = DIRECTION('',(0.,1.,-2.22044604925E-16));
#130 = DIRECTION('',(-1.,0.,0.));
#131 = FACE_BOUND('',#132,.F.);
#132 = EDGE_LOOP('',(#133));
#133 = ORIENTED_EDGE('',*,*,#134,.T.);
#134 = EDGE_CURVE('',#135,#135,#137,.T.);
#135 = VERTEX_POINT('',#136);
#136 = CARTESIAN_POINT('',(46.031716,30.020999908447,-44.144195));
#137 = CIRCLE('',#138,1.6);
#138 = AXIS2_PLACEMENT_3D('',#139,#140,#141);
#139 = CARTESIAN_POINT('',(47.631716,30.020999908447,-44.144195));
#140 = DIRECTION('',(0.,1.,-2.22044604925E-16));
#141 = DIRECTION('',(-1.,0.,0.));
#142 = PLANE('',#143);
#143 = AXIS2_PLACEMENT_3D('',#144,#145,#146);
#144 = CARTESIAN_POINT('',(25.5,30.020999908447,-45.87412261962));
#145 = DIRECTION('',(2.198277123403E-31,-1.,2.732856676E-16));
#146 = DIRECTION('',(0.,-2.732856676E-16,-1.));
#147 = ADVANCED_FACE('',(#148),#193,.F.);
#148 = FACE_BOUND('',#149,.T.);
#149 = EDGE_LOOP('',(#150,#151,#159,#192));
#150 = ORIENTED_EDGE('',*,*,#73,.T.);
#151 = ORIENTED_EDGE('',*,*,#152,.T.);
#152 = EDGE_CURVE('',#74,#153,#155,.T.);
#153 = VERTEX_POINT('',#154);
#154 = CARTESIAN_POINT('',(25.1,26.620999908447,-45.87412261962));
#155 = LINE('',#156,#157);
#156 = CARTESIAN_POINT('',(25.1,30.020999908447,-45.87412261962));
#157 = VECTOR('',#158,1.);
#158 = DIRECTION('',(2.586166254945E-30,-1.,-5.384154751156E-15));
#159 = ORIENTED_EDGE('',*,*,#160,.F.);
#160 = EDGE_CURVE('',#43,#153,#161,.T.);
#161 = B_SPLINE_CURVE_WITH_KNOTS('',8,(#162,#163,#164,#165,#166,#167,
    #168,#169,#170,#171,#172,#173,#174,#175,#176,#177,#178,#179,#180,
    #181,#182,#183,#184,#185,#186,#187,#188,#189,#190,#191),
  .UNSPECIFIED.,.F.,.F.,(9,7,7,7,9),(0.,0.214866890602,0.414712582477,
    0.72874688251,1.),.UNSPECIFIED.);
#162 = CARTESIAN_POINT('',(25.5,27.020999908447,-45.47412261962));
#163 = CARTESIAN_POINT('',(25.499999997911,27.020999906359,
    -45.49500798277));
#164 = CARTESIAN_POINT('',(25.498749159186,27.019749067633,
    -45.51560872506));
#165 = CARTESIAN_POINT('',(25.496321933801,27.017321842248,
    -45.53555839252));
#166 = CARTESIAN_POINT('',(25.492864584991,27.013864493438,
    -45.55462996287));
#167 = CARTESIAN_POINT('',(25.488554794787,27.009554703234,
    -45.5727161581));
#168 = CARTESIAN_POINT('',(25.483561269553,27.004561178,-45.58980975703)
  );
#169 = CARTESIAN_POINT('',(25.478003345526,26.999003253973,
    -45.60598390785));
#170 = CARTESIAN_POINT('',(25.466243783291,26.987243691738,
    -45.63568517165));
#171 = CARTESIAN_POINT('',(25.459947370298,26.980947278745,
    -45.64974886234));
#172 = CARTESIAN_POINT('',(25.453034293784,26.974034202231,
    -45.66353090254));
#173 = CARTESIAN_POINT('',(25.445519341034,26.966519249481,
    -45.67699976339));
#174 = CARTESIAN_POINT('',(25.43741914821,26.958419056658,
    -45.69012499741));
#175 = CARTESIAN_POINT('',(25.428752200353,26.9497521088,-45.7028772385)
  );
#176 = CARTESIAN_POINT('',(25.419538831378,26.940538739825,
    -45.71522820194));
#177 = CARTESIAN_POINT('',(25.394499704877,26.915499613324,
    -45.74588548119));
#178 = CARTESIAN_POINT('',(25.377901953701,26.898901862148,
    -45.76356445061));
#179 = CARTESIAN_POINT('',(25.360095087842,26.88109499629,
    -45.78008025816));
#180 = CARTESIAN_POINT('',(25.341174854996,26.862174763443,
    -45.79533721071));
#181 = CARTESIAN_POINT('',(25.32124498512,26.842244893567,-45.8092497249
    ));
#182 = CARTESIAN_POINT('',(25.300416845538,26.821416753985,
    -45.82174190522));
#183 = CARTESIAN_POINT('',(25.278809399292,26.799809307739,
    -45.83274823194));
#184 = CARTESIAN_POINT('',(25.237322025336,26.758321933783,
    -45.8503927698));
#185 = CARTESIAN_POINT('',(25.21793721924,26.738937366647,
    -45.85728161408));
#186 = CARTESIAN_POINT('',(25.198430920206,26.719429831085,
    -45.86294860487));
#187 = CARTESIAN_POINT('',(25.178830661832,26.699832515666,
    -45.86743923785));
#188 = CARTESIAN_POINT('',(25.159168214897,26.680165932611,
    -45.87078598423));
#189 = CARTESIAN_POINT('',(25.139460372909,26.6604617376,-45.87301002523
    ));
#190 = CARTESIAN_POINT('',(25.119734255501,26.640733672154,
    -45.87412237748));
#191 = CARTESIAN_POINT('',(25.100004908666,26.621004817204,
    -45.87412261959));
#192 = ORIENTED_EDGE('',*,*,#42,.F.);
#193 = CYLINDRICAL_SURFACE('',#194,0.4);
#194 = AXIS2_PLACEMENT_3D('',#195,#196,#197);
#195 = CARTESIAN_POINT('',(25.1,30.020999908447,-45.47412261962));
#196 = DIRECTION('',(2.586166254945E-30,-1.,-5.384154751156E-15));
#197 = DIRECTION('',(1.,1.024302255193E-31,4.613047254803E-16));
#198 = ADVANCED_FACE('',(#199),#217,.T.);
#199 = FACE_BOUND('',#200,.T.);
#200 = EDGE_LOOP('',(#201,#202,#210,#216));
#201 = ORIENTED_EDGE('',*,*,#58,.T.);
#202 = ORIENTED_EDGE('',*,*,#203,.T.);
#203 = EDGE_CURVE('',#51,#204,#206,.T.);
#204 = VERTEX_POINT('',#205);
#205 = CARTESIAN_POINT('',(52.,27.020999908447,-32.87412261962));
#206 = LINE('',#207,#208);
#207 = CARTESIAN_POINT('',(25.5,27.020999908447,-32.87412261962));
#208 = VECTOR('',#209,1.);
#209 = DIRECTION('',(1.,5.953667209215E-32,2.681293342491E-16));
#210 = ORIENTED_EDGE('',*,*,#211,.F.);
#211 = EDGE_CURVE('',#108,#204,#212,.T.);
#212 = LINE('',#213,#214);
#213 = CARTESIAN_POINT('',(52.,30.020999908447,-32.87412261962));
#214 = VECTOR('',#215,1.);
#215 = DIRECTION('',(0.,-1.,2.22044604925E-16));
#216 = ORIENTED_EDGE('',*,*,#115,.F.);
#217 = PLANE('',#218);
#218 = AXIS2_PLACEMENT_3D('',#219,#220,#221);
#219 = CARTESIAN_POINT('',(25.5,30.020999908447,-32.87412261962));
#220 = DIRECTION('',(-2.681293342491E-16,2.22044604925E-16,1.));
#221 = DIRECTION('',(1.,5.953667209215E-32,2.681293342491E-16));
#222 = ADVANCED_FACE('',(#223,#266,#277),#288,.F.);
#223 = FACE_BOUND('',#224,.F.);
#224 = EDGE_LOOP('',(#225,#233,#234,#235,#243,#252,#260));
#225 = ORIENTED_EDGE('',*,*,#226,.F.);
#226 = EDGE_CURVE('',#43,#227,#229,.T.);
#227 = VERTEX_POINT('',#228);
#228 = CARTESIAN_POINT('',(26.699999404326,27.020999908447,
    -45.47412261962));
#229 = LINE('',#230,#231);
#230 = CARTESIAN_POINT('',(25.5,27.020999908447,-45.47412261962));
#231 = VECTOR('',#232,1.);
#232 = DIRECTION('',(1.,0.,1.053854758965E-15));
#233 = ORIENTED_EDGE('',*,*,#50,.T.);
#234 = ORIENTED_EDGE('',*,*,#203,.T.);
#235 = ORIENTED_EDGE('',*,*,#236,.F.);
#236 = EDGE_CURVE('',#237,#204,#239,.T.);
#237 = VERTEX_POINT('',#238);
#238 = CARTESIAN_POINT('',(51.999999999996,27.020999908447,-44.876853));
#239 = LINE('',#240,#241);
#240 = CARTESIAN_POINT('',(52.,27.020999908447,-49.97846221923));
#241 = VECTOR('',#242,1.);
#242 = DIRECTION('',(0.,2.22044604925E-16,1.));
#243 = ORIENTED_EDGE('',*,*,#244,.T.);
#244 = EDGE_CURVE('',#237,#245,#247,.T.);
#245 = VERTEX_POINT('',#246);
#246 = CARTESIAN_POINT('',(26.699999999999,27.020999908447,
    -68.70933952505));
#247 = CIRCLE('',#248,29.860596238997);
#248 = AXIS2_PLACEMENT_3D('',#249,#250,#251);
#249 = CARTESIAN_POINT('',(22.700012350603,27.020999908447,
    -39.11786598024));
#250 = DIRECTION('',(-2.198277123403E-31,1.,-2.22044604925E-16));
#251 = DIRECTION('',(-1.,-2.198277123403E-31,4.379057701015E-47));
#252 = ORIENTED_EDGE('',*,*,#253,.T.);
#253 = EDGE_CURVE('',#245,#254,#256,.T.);
#254 = VERTEX_POINT('',#255);
#255 = CARTESIAN_POINT('',(26.7,27.020999908447,-45.87412261962));
#256 = LINE('',#257,#258);
#257 = CARTESIAN_POINT('',(26.7,27.020999908447,-68.97846221923));
#258 = VECTOR('',#259,1.);
#259 = DIRECTION('',(-4.613047254803E-16,2.22044604925E-16,1.));
#260 = ORIENTED_EDGE('',*,*,#261,.T.);
#261 = EDGE_CURVE('',#254,#227,#262,.T.);
#262 = LINE('',#263,#264);
#263 = CARTESIAN_POINT('',(26.7,27.020999908447,-68.97846221923));
#264 = VECTOR('',#265,1.);
#265 = DIRECTION('',(-4.613047254803E-16,2.22044604925E-16,1.));
#266 = FACE_BOUND('',#267,.F.);
#267 = EDGE_LOOP('',(#268));
#268 = ORIENTED_EDGE('',*,*,#269,.F.);
#269 = EDGE_CURVE('',#270,#270,#272,.T.);
#270 = VERTEX_POINT('',#271);
#271 = CARTESIAN_POINT('',(28.025607,27.020999908447,-44.148964));
#272 = CIRCLE('',#273,1.6);
#273 = AXIS2_PLACEMENT_3D('',#274,#275,#276);
#274 = CARTESIAN_POINT('',(29.625607,27.020999908447,-44.148964));
#275 = DIRECTION('',(0.,1.,-2.22044604925E-16));
#276 = DIRECTION('',(-1.,0.,0.));
#277 = FACE_BOUND('',#278,.F.);
#278 = EDGE_LOOP('',(#279));
#279 = ORIENTED_EDGE('',*,*,#280,.F.);
#280 = EDGE_CURVE('',#281,#281,#283,.T.);
#281 = VERTEX_POINT('',#282);
#282 = CARTESIAN_POINT('',(46.031716,27.020999908447,-44.144195));
#283 = CIRCLE('',#284,1.6);
#284 = AXIS2_PLACEMENT_3D('',#285,#286,#287);
#285 = CARTESIAN_POINT('',(47.631716,27.020999908447,-44.144195));
#286 = DIRECTION('',(0.,1.,-2.22044604925E-16));
#287 = DIRECTION('',(-1.,0.,0.));
#288 = PLANE('',#289);
#289 = AXIS2_PLACEMENT_3D('',#290,#291,#292);
#290 = CARTESIAN_POINT('',(38.660633847243,27.020999908447,
    -50.27923065396));
#291 = DIRECTION('',(-5.258944244471E-16,1.,-3.100149810344E-16));
#292 = DIRECTION('',(1.,5.258944244471E-16,0.));
#293 = ADVANCED_FACE('',(#294),#305,.F.);
#294 = FACE_BOUND('',#295,.F.);
#295 = EDGE_LOOP('',(#296,#297,#298,#304));
#296 = ORIENTED_EDGE('',*,*,#211,.F.);
#297 = ORIENTED_EDGE('',*,*,#107,.F.);
#298 = ORIENTED_EDGE('',*,*,#299,.T.);
#299 = EDGE_CURVE('',#99,#237,#300,.T.);
#300 = LINE('',#301,#302);
#301 = CARTESIAN_POINT('',(51.999999999996,30.020999908447,-44.876853));
#302 = VECTOR('',#303,1.);
#303 = DIRECTION('',(2.198277123403E-31,-1.,2.22044604925E-16));
#304 = ORIENTED_EDGE('',*,*,#236,.T.);
#305 = PLANE('',#306);
#306 = AXIS2_PLACEMENT_3D('',#307,#308,#309);
#307 = CARTESIAN_POINT('',(52.,30.020999908447,-45.87412261962));
#308 = DIRECTION('',(-1.,0.,0.));
#309 = DIRECTION('',(0.,0.,-1.));
#310 = ADVANCED_FACE('',(#311),#331,.T.);
#311 = FACE_BOUND('',#312,.T.);
#312 = EDGE_LOOP('',(#313,#314,#315,#324,#330));
#313 = ORIENTED_EDGE('',*,*,#299,.T.);
#314 = ORIENTED_EDGE('',*,*,#244,.T.);
#315 = ORIENTED_EDGE('',*,*,#316,.T.);
#316 = EDGE_CURVE('',#245,#317,#319,.T.);
#317 = VERTEX_POINT('',#318);
#318 = CARTESIAN_POINT('',(22.700000000006,27.020999908447,
    -68.97846221923));
#319 = CIRCLE('',#320,29.860596238997);
#320 = AXIS2_PLACEMENT_3D('',#321,#322,#323);
#321 = CARTESIAN_POINT('',(22.700012350603,27.020999908447,
    -39.11786598024));
#322 = DIRECTION('',(-2.198277123403E-31,1.,-2.22044604925E-16));
#323 = DIRECTION('',(-1.,-2.198277123403E-31,4.379057701015E-47));
#324 = ORIENTED_EDGE('',*,*,#325,.F.);
#325 = EDGE_CURVE('',#91,#317,#326,.T.);
#326 = LINE('',#327,#328);
#327 = CARTESIAN_POINT('',(22.700000000006,30.020999908447,
    -68.97846221923));
#328 = VECTOR('',#329,1.);
#329 = DIRECTION('',(2.198277123403E-31,-1.,2.22044604925E-16));
#330 = ORIENTED_EDGE('',*,*,#98,.F.);
#331 = CYLINDRICAL_SURFACE('',#332,29.860596238997);
#332 = AXIS2_PLACEMENT_3D('',#333,#334,#335);
#333 = CARTESIAN_POINT('',(22.700012350603,30.020999908447,
    -39.11786598024));
#334 = DIRECTION('',(-2.198277123403E-31,1.,-2.22044604925E-16));
#335 = DIRECTION('',(-1.,-2.198277123403E-31,4.379057701015E-47));
#336 = ADVANCED_FACE('',(#337),#364,.T.);
#337 = FACE_BOUND('',#338,.F.);
#338 = EDGE_LOOP('',(#339,#348,#356,#363));
#339 = ORIENTED_EDGE('',*,*,#340,.T.);
#340 = EDGE_CURVE('',#83,#341,#343,.T.);
#341 = VERTEX_POINT('',#342);
#342 = CARTESIAN_POINT('',(21.5,28.820999908447,-45.87412261962));
#343 = CIRCLE('',#344,1.2);
#344 = AXIS2_PLACEMENT_3D('',#345,#346,#347);
#345 = CARTESIAN_POINT('',(22.7,28.820999908447,-45.87412261962));
#346 = DIRECTION('',(0.,2.22044604925E-16,1.));
#347 = DIRECTION('',(0.,1.,-2.22044604925E-16));
#348 = ORIENTED_EDGE('',*,*,#349,.T.);
#349 = EDGE_CURVE('',#341,#350,#352,.T.);
#350 = VERTEX_POINT('',#351);
#351 = CARTESIAN_POINT('',(21.5,28.820999908447,-68.97846221923));
#352 = LINE('',#353,#354);
#353 = CARTESIAN_POINT('',(21.5,28.820999908447,-45.87412261962));
#354 = VECTOR('',#355,1.);
#355 = DIRECTION('',(0.,-2.22044604925E-16,-1.));
#356 = ORIENTED_EDGE('',*,*,#357,.F.);
#357 = EDGE_CURVE('',#91,#350,#358,.T.);
#358 = CIRCLE('',#359,1.2);
#359 = AXIS2_PLACEMENT_3D('',#360,#361,#362);
#360 = CARTESIAN_POINT('',(22.7,28.820999908447,-68.97846221923));
#361 = DIRECTION('',(0.,2.22044604925E-16,1.));
#362 = DIRECTION('',(0.,1.,-2.22044604925E-16));
#363 = ORIENTED_EDGE('',*,*,#90,.F.);
#364 = CYLINDRICAL_SURFACE('',#365,1.2);
#365 = AXIS2_PLACEMENT_3D('',#366,#367,#368);
#366 = CARTESIAN_POINT('',(22.7,28.820999908447,-45.87412261962));
#367 = DIRECTION('',(0.,-2.22044604925E-16,-1.));
#368 = DIRECTION('',(-2.36717412389E-16,1.,-2.22044604925E-16));
#369 = ADVANCED_FACE('',(#370),#448,.T.);
#370 = FACE_BOUND('',#371,.T.);
#371 = EDGE_LOOP('',(#372,#383,#389,#390,#391,#392,#400,#409,#417,#425,
    #433,#442));
#372 = ORIENTED_EDGE('',*,*,#373,.F.);
#373 = EDGE_CURVE('',#374,#376,#378,.T.);
#374 = VERTEX_POINT('',#375);
#375 = CARTESIAN_POINT('',(25.805572809,26.620999908447,-45.87412261962)
  );
#376 = VERTEX_POINT('',#377);
#377 = CARTESIAN_POINT('',(25.5,25.820999908447,-45.87412261962));
#378 = CIRCLE('',#379,1.2);
#379 = AXIS2_PLACEMENT_3D('',#380,#381,#382);
#380 = CARTESIAN_POINT('',(26.7,25.820999908447,-45.87412261962));
#381 = DIRECTION('',(-4.613047254803E-16,2.22044604925E-16,1.));
#382 = DIRECTION('',(-1.,0.,-4.613047254803E-16));
#383 = ORIENTED_EDGE('',*,*,#384,.F.);
#384 = EDGE_CURVE('',#153,#374,#385,.T.);
#385 = LINE('',#386,#387);
#386 = CARTESIAN_POINT('',(25.5,26.620999908447,-45.87412261962));
#387 = VECTOR('',#388,1.);
#388 = DIRECTION('',(1.,0.,1.053854758965E-15));
#389 = ORIENTED_EDGE('',*,*,#152,.F.);
#390 = ORIENTED_EDGE('',*,*,#82,.T.);
#391 = ORIENTED_EDGE('',*,*,#340,.T.);
#392 = ORIENTED_EDGE('',*,*,#393,.T.);
#393 = EDGE_CURVE('',#341,#394,#396,.T.);
#394 = VERTEX_POINT('',#395);
#395 = CARTESIAN_POINT('',(21.5,21.220999908447,-45.87412261962));
#396 = LINE('',#397,#398);
#397 = CARTESIAN_POINT('',(21.5,30.020999908447,-45.87412261962));
#398 = VECTOR('',#399,1.);
#399 = DIRECTION('',(0.,-1.,2.22044604925E-16));
#400 = ORIENTED_EDGE('',*,*,#401,.T.);
#401 = EDGE_CURVE('',#394,#402,#404,.T.);
#402 = VERTEX_POINT('',#403);
#403 = CARTESIAN_POINT('',(20.3,20.020999908447,-45.87412261962));
#404 = CIRCLE('',#405,1.2);
#405 = AXIS2_PLACEMENT_3D('',#406,#407,#408);
#406 = CARTESIAN_POINT('',(20.3,21.220999908447,-45.87412261962));
#407 = DIRECTION('',(4.613047254803E-16,-2.22044604925E-16,-1.));
#408 = DIRECTION('',(-1.,0.,-4.613047254803E-16));
#409 = ORIENTED_EDGE('',*,*,#410,.F.);
#410 = EDGE_CURVE('',#411,#402,#413,.T.);
#411 = VERTEX_POINT('',#412);
#412 = CARTESIAN_POINT('',(5.500000000002,20.020999908447,
    -45.87412261962));
#413 = LINE('',#414,#415);
#414 = CARTESIAN_POINT('',(5.500000000002,20.020999908447,
    -45.87412261962));
#415 = VECTOR('',#416,1.);
#416 = DIRECTION('',(1.,8.659560562355E-17,-8.659560562355E-17));
#417 = ORIENTED_EDGE('',*,*,#418,.T.);
#418 = EDGE_CURVE('',#411,#419,#421,.T.);
#419 = VERTEX_POINT('',#420);
#420 = CARTESIAN_POINT('',(5.500000000002,17.020999908447,
    -45.87412261962));
#421 = LINE('',#422,#423);
#422 = CARTESIAN_POINT('',(5.500000000002,20.020999908447,
    -45.87412261962));
#423 = VECTOR('',#424,1.);
#424 = DIRECTION('',(8.659560562355E-17,-1.,2.218671295934E-31));
#425 = ORIENTED_EDGE('',*,*,#426,.T.);
#426 = EDGE_CURVE('',#419,#427,#429,.T.);
#427 = VERTEX_POINT('',#428);
#428 = CARTESIAN_POINT('',(24.3,17.020999908447,-45.87412261962));
#429 = LINE('',#430,#431);
#430 = CARTESIAN_POINT('',(5.500000000002,17.020999908447,
    -45.87412261962));
#431 = VECTOR('',#432,1.);
#432 = DIRECTION('',(1.,8.659560562355E-17,-8.659560562355E-17));
#433 = ORIENTED_EDGE('',*,*,#434,.F.);
#434 = EDGE_CURVE('',#435,#427,#437,.T.);
#435 = VERTEX_POINT('',#436);
#436 = CARTESIAN_POINT('',(25.5,18.220999908447,-45.87412261962));
#437 = CIRCLE('',#438,1.2);
#438 = AXIS2_PLACEMENT_3D('',#439,#440,#441);
#439 = CARTESIAN_POINT('',(24.3,18.220999908447,-45.87412261962));
#440 = DIRECTION('',(-0.,-2.22044604925E-16,-1.));
#441 = DIRECTION('',(0.,-1.,2.22044604925E-16));
#442 = ORIENTED_EDGE('',*,*,#443,.F.);
#443 = EDGE_CURVE('',#376,#435,#444,.T.);
#444 = LINE('',#445,#446);
#445 = CARTESIAN_POINT('',(25.5,30.020999908447,-45.87412261962));
#446 = VECTOR('',#447,1.);
#447 = DIRECTION('',(0.,-1.,2.22044604925E-16));
#448 = PLANE('',#449);
#449 = AXIS2_PLACEMENT_3D('',#450,#451,#452);
#450 = CARTESIAN_POINT('',(27.867647058824,24.403352849624,
    -45.87412261962));
#451 = DIRECTION('',(-1.053854758965E-15,-5.384154751156E-15,1.));
#452 = DIRECTION('',(0.,1.,5.384154751156E-15));
#453 = ADVANCED_FACE('',(#454),#465,.F.);
#454 = FACE_BOUND('',#455,.F.);
#455 = EDGE_LOOP('',(#456,#462,#463,#464));
#456 = ORIENTED_EDGE('',*,*,#457,.T.);
#457 = EDGE_CURVE('',#124,#270,#458,.T.);
#458 = LINE('',#459,#460);
#459 = CARTESIAN_POINT('',(28.025607,30.020999908447,-44.148964));
#460 = VECTOR('',#461,1.);
#461 = DIRECTION('',(0.,-1.,2.22044604925E-16));
#462 = ORIENTED_EDGE('',*,*,#269,.T.);
#463 = ORIENTED_EDGE('',*,*,#457,.F.);
#464 = ORIENTED_EDGE('',*,*,#123,.F.);
#465 = CYLINDRICAL_SURFACE('',#466,1.6);
#466 = AXIS2_PLACEMENT_3D('',#467,#468,#469);
#467 = CARTESIAN_POINT('',(29.625607,30.020999908447,-44.148964));
#468 = DIRECTION('',(0.,1.,-2.22044604925E-16));
#469 = DIRECTION('',(-1.,0.,0.));
#470 = ADVANCED_FACE('',(#471),#482,.F.);
#471 = FACE_BOUND('',#472,.F.);
#472 = EDGE_LOOP('',(#473,#479,#480,#481));
#473 = ORIENTED_EDGE('',*,*,#474,.T.);
#474 = EDGE_CURVE('',#135,#281,#475,.T.);
#475 = LINE('',#476,#477);
#476 = CARTESIAN_POINT('',(46.031716,30.020999908447,-44.144195));
#477 = VECTOR('',#478,1.);
#478 = DIRECTION('',(0.,-1.,2.22044604925E-16));
#479 = ORIENTED_EDGE('',*,*,#280,.T.);
#480 = ORIENTED_EDGE('',*,*,#474,.F.);
#481 = ORIENTED_EDGE('',*,*,#134,.F.);
#482 = CYLINDRICAL_SURFACE('',#483,1.6);
#483 = AXIS2_PLACEMENT_3D('',#484,#485,#486);
#484 = CARTESIAN_POINT('',(47.631716,30.020999908447,-44.144195));
#485 = DIRECTION('',(0.,1.,-2.22044604925E-16));
#486 = DIRECTION('',(-1.,0.,0.));
#487 = ADVANCED_FACE('',(#488),#516,.F.);
#488 = FACE_BOUND('',#489,.F.);
#489 = EDGE_LOOP('',(#490,#491,#492,#515));
#490 = ORIENTED_EDGE('',*,*,#160,.F.);
#491 = ORIENTED_EDGE('',*,*,#226,.T.);
#492 = ORIENTED_EDGE('',*,*,#493,.F.);
#493 = EDGE_CURVE('',#374,#227,#494,.T.);
#494 = B_SPLINE_CURVE_WITH_KNOTS('',7,(#495,#496,#497,#498,#499,#500,
    #501,#502,#503,#504,#505,#506,#507,#508,#509,#510,#511,#512,#513,
    #514),.UNSPECIFIED.,.F.,.F.,(8,6,6,8),(0.,0.417794042198,
    0.660310347933,1.),.UNSPECIFIED.);
#495 = CARTESIAN_POINT('',(25.805572809,26.620999908447,-45.87412261962)
  );
#496 = CARTESIAN_POINT('',(25.847644274702,26.668037237058,
    -45.87412261962));
#497 = CARTESIAN_POINT('',(25.893386307483,26.71337066943,
    -45.86766902877));
#498 = CARTESIAN_POINT('',(25.942047020326,26.755768630171,
    -45.85560687083));
#499 = CARTESIAN_POINT('',(25.99282712597,26.794606174348,
    -45.83907531889));
#500 = CARTESIAN_POINT('',(26.045042136948,26.829666909757,
    -45.81904757041));
#501 = CARTESIAN_POINT('',(26.098253709121,26.861002070956,
    -45.79629691401));
#502 = CARTESIAN_POINT('',(26.183832355325,26.904890446206,
    -45.75674777558));
#503 = CARTESIAN_POINT('',(26.215553439188,26.919794401495,
    -45.74146937324));
#504 = CARTESIAN_POINT('',(26.247518284492,26.93350215258,
    -45.72554146798));
#505 = CARTESIAN_POINT('',(26.279687178417,26.946032546965,
    -45.70905602432));
#506 = CARTESIAN_POINT('',(26.312027013839,26.957404281452,
    -45.69209353105));
#507 = CARTESIAN_POINT('',(26.344511289331,26.967635902142,
    -45.67472300116));
#508 = CARTESIAN_POINT('',(26.422794888131,26.989505934234,
    -45.63218034085));
#509 = CARTESIAN_POINT('',(26.468710721453,27.000063388602,
    -45.60667509896));
#510 = CARTESIAN_POINT('',(26.514807684038,27.008462537633,
    -45.58065235106));
#511 = CARTESIAN_POINT('',(26.561029738423,27.014737696387,
    -45.55425912417));
#512 = CARTESIAN_POINT('',(26.607327354401,27.018912570238,
    -45.52762726972));
#513 = CARTESIAN_POINT('',(26.653660128642,27.020999700232,
    -45.50087736583));
#514 = CARTESIAN_POINT('',(26.699999404326,27.020999908447,
    -45.47412261962));
#515 = ORIENTED_EDGE('',*,*,#384,.F.);
#516 = CYLINDRICAL_SURFACE('',#517,0.4);
#517 = AXIS2_PLACEMENT_3D('',#518,#519,#520);
#518 = CARTESIAN_POINT('',(25.5,26.620999908447,-45.47412261962));
#519 = DIRECTION('',(1.,0.,1.053854758965E-15));
#520 = DIRECTION('',(1.053854758965E-15,5.384154751156E-15,-1.));
#521 = ADVANCED_FACE('',(#522),#551,.F.);
#522 = FACE_BOUND('',#523,.F.);
#523 = EDGE_LOOP('',(#524,#525,#526,#527,#528,#536,#545));
#524 = ORIENTED_EDGE('',*,*,#373,.F.);
#525 = ORIENTED_EDGE('',*,*,#493,.T.);
#526 = ORIENTED_EDGE('',*,*,#261,.F.);
#527 = ORIENTED_EDGE('',*,*,#253,.F.);
#528 = ORIENTED_EDGE('',*,*,#529,.F.);
#529 = EDGE_CURVE('',#530,#245,#532,.T.);
#530 = VERTEX_POINT('',#531);
#531 = CARTESIAN_POINT('',(26.7,27.020999908447,-68.97846221923));
#532 = LINE('',#533,#534);
#533 = CARTESIAN_POINT('',(26.7,27.020999908447,-68.97846221923));
#534 = VECTOR('',#535,1.);
#535 = DIRECTION('',(-4.613047254803E-16,2.22044604925E-16,1.));
#536 = ORIENTED_EDGE('',*,*,#537,.T.);
#537 = EDGE_CURVE('',#530,#538,#540,.T.);
#538 = VERTEX_POINT('',#539);
#539 = CARTESIAN_POINT('',(25.5,25.820999908447,-68.97846221923));
#540 = CIRCLE('',#541,1.2);
#541 = AXIS2_PLACEMENT_3D('',#542,#543,#544);
#542 = CARTESIAN_POINT('',(26.7,25.820999908447,-68.97846221923));
#543 = DIRECTION('',(-4.613047254803E-16,2.22044604925E-16,1.));
#544 = DIRECTION('',(-1.,0.,-4.613047254803E-16));
#545 = ORIENTED_EDGE('',*,*,#546,.T.);
#546 = EDGE_CURVE('',#538,#376,#547,.T.);
#547 = LINE('',#548,#549);
#548 = CARTESIAN_POINT('',(25.5,25.820999908447,-68.97846221923));
#549 = VECTOR('',#550,1.);
#550 = DIRECTION('',(-4.613047254803E-16,2.22044604925E-16,1.));
#551 = CYLINDRICAL_SURFACE('',#552,1.2);
#552 = AXIS2_PLACEMENT_3D('',#553,#554,#555);
#553 = CARTESIAN_POINT('',(26.7,25.820999908447,-68.97846221923));
#554 = DIRECTION('',(-4.613047254803E-16,2.22044604925E-16,1.));
#555 = DIRECTION('',(1.024302255193E-31,1.,-2.22044604925E-16));
#556 = ADVANCED_FACE('',(#557),#624,.F.);
#557 = FACE_BOUND('',#558,.F.);
#558 = EDGE_LOOP('',(#559,#560,#566,#567,#568,#576,#585,#593,#601,#609,
    #618));
#559 = ORIENTED_EDGE('',*,*,#537,.F.);
#560 = ORIENTED_EDGE('',*,*,#561,.T.);
#561 = EDGE_CURVE('',#530,#317,#562,.T.);
#562 = LINE('',#563,#564);
#563 = CARTESIAN_POINT('',(46.000000000001,27.020999908447,
    -68.97846221923));
#564 = VECTOR('',#565,1.);
#565 = DIRECTION('',(-1.,2.388613643004E-29,1.08563611129E-13));
#566 = ORIENTED_EDGE('',*,*,#325,.F.);
#567 = ORIENTED_EDGE('',*,*,#357,.T.);
#568 = ORIENTED_EDGE('',*,*,#569,.T.);
#569 = EDGE_CURVE('',#350,#570,#572,.T.);
#570 = VERTEX_POINT('',#571);
#571 = CARTESIAN_POINT('',(21.5,21.220999908447,-68.97846221923));
#572 = LINE('',#573,#574);
#573 = CARTESIAN_POINT('',(21.5,30.020999908447,-68.97846221923));
#574 = VECTOR('',#575,1.);
#575 = DIRECTION('',(0.,-1.,2.22044604925E-16));
#576 = ORIENTED_EDGE('',*,*,#577,.T.);
#577 = EDGE_CURVE('',#570,#578,#580,.T.);
#578 = VERTEX_POINT('',#579);
#579 = CARTESIAN_POINT('',(20.3,20.020999908447,-68.97846221923));
#580 = CIRCLE('',#581,1.2);
#581 = AXIS2_PLACEMENT_3D('',#582,#583,#584);
#582 = CARTESIAN_POINT('',(20.3,21.220999908447,-68.97846221923));
#583 = DIRECTION('',(4.613047254803E-16,-2.22044604925E-16,-1.));
#584 = DIRECTION('',(-1.,0.,-4.613047254803E-16));
#585 = ORIENTED_EDGE('',*,*,#586,.T.);
#586 = EDGE_CURVE('',#578,#587,#589,.T.);
#587 = VERTEX_POINT('',#588);
#588 = CARTESIAN_POINT('',(5.5,20.020999908447,-68.97846221923));
#589 = LINE('',#590,#591);
#590 = CARTESIAN_POINT('',(41.999999999998,20.020999908447,
    -68.97846221923));
#591 = VECTOR('',#592,1.);
#592 = DIRECTION('',(-1.,-8.659560562355E-17,8.659560562355E-17));
#593 = ORIENTED_EDGE('',*,*,#594,.T.);
#594 = EDGE_CURVE('',#587,#595,#597,.T.);
#595 = VERTEX_POINT('',#596);
#596 = CARTESIAN_POINT('',(5.5,17.020999908447,-68.97846221923));
#597 = LINE('',#598,#599);
#598 = CARTESIAN_POINT('',(5.5,20.020999908447,-68.97846221923));
#599 = VECTOR('',#600,1.);
#600 = DIRECTION('',(8.659560562355E-17,-1.,2.218671295934E-31));
#601 = ORIENTED_EDGE('',*,*,#602,.T.);
#602 = EDGE_CURVE('',#595,#603,#605,.T.);
#603 = VERTEX_POINT('',#604);
#604 = CARTESIAN_POINT('',(24.3,17.020999908447,-68.97846221923));
#605 = LINE('',#606,#607);
#606 = CARTESIAN_POINT('',(21.5,17.020999908447,-68.97846221923));
#607 = VECTOR('',#608,1.);
#608 = DIRECTION('',(1.,0.,0.));
#609 = ORIENTED_EDGE('',*,*,#610,.F.);
#610 = EDGE_CURVE('',#611,#603,#613,.T.);
#611 = VERTEX_POINT('',#612);
#612 = CARTESIAN_POINT('',(25.5,18.220999908447,-68.97846221923));
#613 = CIRCLE('',#614,1.2);
#614 = AXIS2_PLACEMENT_3D('',#615,#616,#617);
#615 = CARTESIAN_POINT('',(24.3,18.220999908447,-68.97846221923));
#616 = DIRECTION('',(-0.,-2.22044604925E-16,-1.));
#617 = DIRECTION('',(0.,-1.,2.22044604925E-16));
#618 = ORIENTED_EDGE('',*,*,#619,.F.);
#619 = EDGE_CURVE('',#538,#611,#620,.T.);
#620 = LINE('',#621,#622);
#621 = CARTESIAN_POINT('',(25.5,30.020999908447,-68.97846221923));
#622 = VECTOR('',#623,1.);
#623 = DIRECTION('',(0.,-1.,2.22044604925E-16));
#624 = PLANE('',#625);
#625 = AXIS2_PLACEMENT_3D('',#626,#627,#628);
#626 = CARTESIAN_POINT('',(25.329439252337,23.941560656111,
    -68.97846221923));
#627 = DIRECTION('',(3.000113354079E-15,1.060319659502E-14,1.));
#628 = DIRECTION('',(0.,1.,-1.060319659502E-14));
#629 = ADVANCED_FACE('',(#630),#635,.T.);
#630 = FACE_BOUND('',#631,.T.);
#631 = EDGE_LOOP('',(#632,#633,#634));
#632 = ORIENTED_EDGE('',*,*,#316,.F.);
#633 = ORIENTED_EDGE('',*,*,#529,.F.);
#634 = ORIENTED_EDGE('',*,*,#561,.T.);
#635 = PLANE('',#636);
#636 = AXIS2_PLACEMENT_3D('',#637,#638,#639);
#637 = CARTESIAN_POINT('',(52.,27.020999908447,-62.97846221923));
#638 = DIRECTION('',(-2.010468138297E-16,1.,-1.962650743242E-16));
#639 = DIRECTION('',(1.,2.010468138297E-16,0.));
#640 = ADVANCED_FACE('',(#641),#668,.F.);
#641 = FACE_BOUND('',#642,.F.);
#642 = EDGE_LOOP('',(#643,#644,#645,#646,#654,#662));
#643 = ORIENTED_EDGE('',*,*,#569,.F.);
#644 = ORIENTED_EDGE('',*,*,#349,.F.);
#645 = ORIENTED_EDGE('',*,*,#393,.T.);
#646 = ORIENTED_EDGE('',*,*,#647,.F.);
#647 = EDGE_CURVE('',#648,#394,#650,.T.);
#648 = VERTEX_POINT('',#649);
#649 = CARTESIAN_POINT('',(21.5,21.220999908447,-53.18263069592));
#650 = LINE('',#651,#652);
#651 = CARTESIAN_POINT('',(21.5,21.220999908447,-68.97846221923));
#652 = VECTOR('',#653,1.);
#653 = DIRECTION('',(-4.613047254803E-16,2.22044604925E-16,1.));
#654 = ORIENTED_EDGE('',*,*,#655,.F.);
#655 = EDGE_CURVE('',#656,#648,#658,.T.);
#656 = VERTEX_POINT('',#657);
#657 = CARTESIAN_POINT('',(21.5,21.220999908447,-62.77429374255));
#658 = LINE('',#659,#660);
#659 = CARTESIAN_POINT('',(21.5,21.220999908447,-68.97846221923));
#660 = VECTOR('',#661,1.);
#661 = DIRECTION('',(-4.613047254803E-16,2.22044604925E-16,1.));
#662 = ORIENTED_EDGE('',*,*,#663,.F.);
#663 = EDGE_CURVE('',#570,#656,#664,.T.);
#664 = LINE('',#665,#666);
#665 = CARTESIAN_POINT('',(21.5,21.220999908447,-68.97846221923));
#666 = VECTOR('',#667,1.);
#667 = DIRECTION('',(-4.613047254803E-16,2.22044604925E-16,1.));
#668 = PLANE('',#669);
#669 = AXIS2_PLACEMENT_3D('',#670,#671,#672);
#670 = CARTESIAN_POINT('',(21.5,30.020999908447,-45.87412261962));
#671 = DIRECTION('',(1.,0.,0.));
#672 = DIRECTION('',(0.,-2.22044604925E-16,-1.));
#673 = ADVANCED_FACE('',(#674),#685,.F.);
#674 = FACE_BOUND('',#675,.F.);
#675 = EDGE_LOOP('',(#676,#677,#678,#679));
#676 = ORIENTED_EDGE('',*,*,#443,.F.);
#677 = ORIENTED_EDGE('',*,*,#546,.F.);
#678 = ORIENTED_EDGE('',*,*,#619,.T.);
#679 = ORIENTED_EDGE('',*,*,#680,.T.);
#680 = EDGE_CURVE('',#611,#435,#681,.T.);
#681 = LINE('',#682,#683);
#682 = CARTESIAN_POINT('',(25.5,18.220999908447,-68.97846221923));
#683 = VECTOR('',#684,1.);
#684 = DIRECTION('',(0.,2.22044604925E-16,1.));
#685 = PLANE('',#686);
#686 = AXIS2_PLACEMENT_3D('',#687,#688,#689);
#687 = CARTESIAN_POINT('',(25.5,30.020999908447,-68.97846221923));
#688 = DIRECTION('',(-1.,0.,0.));
#689 = DIRECTION('',(0.,2.22044604925E-16,1.));
#690 = ADVANCED_FACE('',(#691),#702,.T.);
#691 = FACE_BOUND('',#692,.F.);
#692 = EDGE_LOOP('',(#693,#694,#700,#701));
#693 = ORIENTED_EDGE('',*,*,#610,.T.);
#694 = ORIENTED_EDGE('',*,*,#695,.T.);
#695 = EDGE_CURVE('',#603,#427,#696,.T.);
#696 = LINE('',#697,#698);
#697 = CARTESIAN_POINT('',(24.3,17.020999908447,-68.97846221923));
#698 = VECTOR('',#699,1.);
#699 = DIRECTION('',(0.,2.22044604925E-16,1.));
#700 = ORIENTED_EDGE('',*,*,#434,.F.);
#701 = ORIENTED_EDGE('',*,*,#680,.F.);
#702 = CYLINDRICAL_SURFACE('',#703,1.2);
#703 = AXIS2_PLACEMENT_3D('',#704,#705,#706);
#704 = CARTESIAN_POINT('',(24.3,18.220999908447,-68.97846221923));
#705 = DIRECTION('',(0.,2.22044604925E-16,1.));
#706 = DIRECTION('',(1.,0.,0.));
#707 = ADVANCED_FACE('',(#708,#737),#748,.T.);
#708 = FACE_BOUND('',#709,.T.);
#709 = EDGE_LOOP('',(#710,#711,#720,#728,#735,#736));
#710 = ORIENTED_EDGE('',*,*,#426,.F.);
#711 = ORIENTED_EDGE('',*,*,#712,.F.);
#712 = EDGE_CURVE('',#713,#419,#715,.T.);
#713 = VERTEX_POINT('',#714);
#714 = CARTESIAN_POINT('',(-0.499999999998,17.020999908447,
    -51.87412261962));
#715 = CIRCLE('',#716,6.);
#716 = AXIS2_PLACEMENT_3D('',#717,#718,#719);
#717 = CARTESIAN_POINT('',(5.500000000002,17.020999908447,
    -51.87412261962));
#718 = DIRECTION('',(-8.659560562355E-17,1.,2.22044604925E-16));
#719 = DIRECTION('',(-1.,-8.659560562355E-17,8.659560562355E-17));
#720 = ORIENTED_EDGE('',*,*,#721,.F.);
#721 = EDGE_CURVE('',#722,#713,#724,.T.);
#722 = VERTEX_POINT('',#723);
#723 = CARTESIAN_POINT('',(-0.499999999999,17.020999908447,
    -62.97846221924));
#724 = LINE('',#725,#726);
#725 = CARTESIAN_POINT('',(-0.499999999998,17.020999908447,
    -62.97846221924));
#726 = VECTOR('',#727,1.);
#727 = DIRECTION('',(8.659560562355E-17,-2.22044604925E-16,1.));
#728 = ORIENTED_EDGE('',*,*,#729,.F.);
#729 = EDGE_CURVE('',#595,#722,#730,.T.);
#730 = CIRCLE('',#731,6.);
#731 = AXIS2_PLACEMENT_3D('',#732,#733,#734);
#732 = CARTESIAN_POINT('',(5.5,17.020999908447,-62.97846221923));
#733 = DIRECTION('',(-8.659560562355E-17,1.,2.22044604925E-16));
#734 = DIRECTION('',(-1.,-8.659560562355E-17,8.659560562355E-17));
#735 = ORIENTED_EDGE('',*,*,#602,.T.);
#736 = ORIENTED_EDGE('',*,*,#695,.T.);
#737 = FACE_BOUND('',#738,.T.);
#738 = EDGE_LOOP('',(#739));
#739 = ORIENTED_EDGE('',*,*,#740,.T.);
#740 = EDGE_CURVE('',#741,#741,#743,.T.);
#741 = VERTEX_POINT('',#742);
#742 = CARTESIAN_POINT('',(4.5,17.020999908447,-57.97846221923));
#743 = CIRCLE('',#744,6.);
#744 = AXIS2_PLACEMENT_3D('',#745,#746,#747);
#745 = CARTESIAN_POINT('',(10.5,17.020999908447,-57.97846221923));
#746 = DIRECTION('',(-8.659560562355E-17,1.,2.22044604925E-16));
#747 = DIRECTION('',(-1.,-8.659560562355E-17,8.659560562355E-17));
#748 = PLANE('',#749);
#749 = AXIS2_PLACEMENT_3D('',#750,#751,#752);
#750 = CARTESIAN_POINT('',(13.318672482286,17.020999908447,
    -57.42629241943));
#751 = DIRECTION('',(7.188458848275E-15,-1.,-3.629906581984E-16));
#752 = DIRECTION('',(-1.,-7.188458848275E-15,0.));
#753 = ADVANCED_FACE('',(#754),#773,.T.);
#754 = FACE_BOUND('',#755,.T.);
#755 = EDGE_LOOP('',(#756,#764,#765,#766));
#756 = ORIENTED_EDGE('',*,*,#757,.T.);
#757 = EDGE_CURVE('',#758,#713,#760,.T.);
#758 = VERTEX_POINT('',#759);
#759 = CARTESIAN_POINT('',(-0.499999999998,20.020999908447,
    -51.87412261962));
#760 = LINE('',#761,#762);
#761 = CARTESIAN_POINT('',(-0.499999999998,20.020999908447,
    -51.87412261962));
#762 = VECTOR('',#763,1.);
#763 = DIRECTION('',(8.659560562355E-17,-1.,2.218671295934E-31));
#764 = ORIENTED_EDGE('',*,*,#712,.T.);
#765 = ORIENTED_EDGE('',*,*,#418,.F.);
#766 = ORIENTED_EDGE('',*,*,#767,.F.);
#767 = EDGE_CURVE('',#758,#411,#768,.T.);
#768 = CIRCLE('',#769,6.);
#769 = AXIS2_PLACEMENT_3D('',#770,#771,#772);
#770 = CARTESIAN_POINT('',(5.500000000002,20.020999908447,
    -51.87412261962));
#771 = DIRECTION('',(-8.659560562355E-17,1.,2.22044604925E-16));
#772 = DIRECTION('',(-1.,-8.659560562355E-17,8.659560562355E-17));
#773 = CYLINDRICAL_SURFACE('',#774,6.);
#774 = AXIS2_PLACEMENT_3D('',#775,#776,#777);
#775 = CARTESIAN_POINT('',(5.500000000002,20.020999908447,
    -51.87412261962));
#776 = DIRECTION('',(-8.659560562355E-17,1.,6.661338147751E-16));
#777 = DIRECTION('',(-1.,-8.659560562355E-17,8.659560562355E-17));
#778 = ADVANCED_FACE('',(#779,#831),#842,.F.);
#779 = FACE_BOUND('',#780,.T.);
#780 = EDGE_LOOP('',(#781,#782,#791,#797,#798,#799,#807,#816,#825));
#781 = ORIENTED_EDGE('',*,*,#586,.T.);
#782 = ORIENTED_EDGE('',*,*,#783,.T.);
#783 = EDGE_CURVE('',#587,#784,#786,.T.);
#784 = VERTEX_POINT('',#785);
#785 = CARTESIAN_POINT('',(-0.499999999999,20.020999908447,
    -62.97846221924));
#786 = CIRCLE('',#787,6.);
#787 = AXIS2_PLACEMENT_3D('',#788,#789,#790);
#788 = CARTESIAN_POINT('',(5.5,20.020999908447,-62.97846221923));
#789 = DIRECTION('',(-8.659560562355E-17,1.,2.22044604925E-16));
#790 = DIRECTION('',(-1.,-8.659560562355E-17,8.659560562355E-17));
#791 = ORIENTED_EDGE('',*,*,#792,.T.);
#792 = EDGE_CURVE('',#784,#758,#793,.T.);
#793 = LINE('',#794,#795);
#794 = CARTESIAN_POINT('',(-0.499999999998,20.020999908447,
    -62.97846221924));
#795 = VECTOR('',#796,1.);
#796 = DIRECTION('',(8.659560562355E-17,-6.661338147751E-16,1.));
#797 = ORIENTED_EDGE('',*,*,#767,.T.);
#798 = ORIENTED_EDGE('',*,*,#410,.T.);
#799 = ORIENTED_EDGE('',*,*,#800,.F.);
#800 = EDGE_CURVE('',#801,#402,#803,.T.);
#801 = VERTEX_POINT('',#802);
#802 = CARTESIAN_POINT('',(20.3,20.020999908447,-51.05314634196));
#803 = LINE('',#804,#805);
#804 = CARTESIAN_POINT('',(20.3,20.020999908447,-68.97846221923));
#805 = VECTOR('',#806,1.);
#806 = DIRECTION('',(-4.613047254803E-16,2.22044604925E-16,1.));
#807 = ORIENTED_EDGE('',*,*,#808,.T.);
#808 = EDGE_CURVE('',#801,#809,#811,.T.);
#809 = VERTEX_POINT('',#810);
#810 = CARTESIAN_POINT('',(22.5,20.020999908447,-57.97846221923));
#811 = CIRCLE('',#812,12.);
#812 = AXIS2_PLACEMENT_3D('',#813,#814,#815);
#813 = CARTESIAN_POINT('',(10.5,20.020999908447,-57.97846221923));
#814 = DIRECTION('',(-0.,1.,2.22044604925E-16));
#815 = DIRECTION('',(1.,0.,0.));
#816 = ORIENTED_EDGE('',*,*,#817,.T.);
#817 = EDGE_CURVE('',#809,#818,#820,.T.);
#818 = VERTEX_POINT('',#819);
#819 = CARTESIAN_POINT('',(20.3,20.020999908447,-64.90377809651));
#820 = CIRCLE('',#821,12.);
#821 = AXIS2_PLACEMENT_3D('',#822,#823,#824);
#822 = CARTESIAN_POINT('',(10.5,20.020999908447,-57.97846221923));
#823 = DIRECTION('',(-0.,1.,2.22044604925E-16));
#824 = DIRECTION('',(1.,0.,0.));
#825 = ORIENTED_EDGE('',*,*,#826,.F.);
#826 = EDGE_CURVE('',#578,#818,#827,.T.);
#827 = LINE('',#828,#829);
#828 = CARTESIAN_POINT('',(20.3,20.020999908447,-68.97846221923));
#829 = VECTOR('',#830,1.);
#830 = DIRECTION('',(-4.613047254803E-16,2.22044604925E-16,1.));
#831 = FACE_BOUND('',#832,.F.);
#832 = EDGE_LOOP('',(#833));
#833 = ORIENTED_EDGE('',*,*,#834,.T.);
#834 = EDGE_CURVE('',#835,#835,#837,.T.);
#835 = VERTEX_POINT('',#836);
#836 = CARTESIAN_POINT('',(4.5,20.020999908447,-57.97846221923));
#837 = CIRCLE('',#838,6.);
#838 = AXIS2_PLACEMENT_3D('',#839,#840,#841);
#839 = CARTESIAN_POINT('',(10.5,20.020999908447,-57.97846221923));
#840 = DIRECTION('',(-8.659560562355E-17,1.,2.22044604925E-16));
#841 = DIRECTION('',(-1.,-8.659560562355E-17,8.659560562355E-17));
#842 = PLANE('',#843);
#843 = AXIS2_PLACEMENT_3D('',#844,#845,#846);
#844 = CARTESIAN_POINT('',(5.704168476688,20.020999908447,
    -68.97846221923));
#845 = DIRECTION('',(0.,-1.,0.));
#846 = DIRECTION('',(0.,0.,-1.));
#847 = ADVANCED_FACE('',(#848),#890,.F.);
#848 = FACE_BOUND('',#849,.T.);
#849 = EDGE_LOOP('',(#850,#851,#888,#889));
#850 = ORIENTED_EDGE('',*,*,#647,.F.);
#851 = ORIENTED_EDGE('',*,*,#852,.T.);
#852 = EDGE_CURVE('',#648,#801,#853,.T.);
#853 = B_SPLINE_CURVE_WITH_KNOTS('',5,(#854,#855,#856,#857,#858,#859,
    #860,#861,#862,#863,#864,#865,#866,#867,#868,#869,#870,#871,#872,
    #873,#874,#875,#876,#877,#878,#879,#880,#881,#882,#883,#884,#885,
    #886,#887),.UNSPECIFIED.,.F.,.F.,(6,4,4,4,4,4,4,4,6),(0.,
    6.151954526865E-02,0.133291908435,0.220378305006,0.328286018143,
    0.466506107751,0.637207015519,0.8131126277,1.),.UNSPECIFIED.);
#854 = CARTESIAN_POINT('',(21.5,21.220999908447,-53.18263069592));
#855 = CARTESIAN_POINT('',(21.5,21.183414453311,-53.18263069592));
#856 = CARTESIAN_POINT('',(21.498528441691,21.146275776882,
    -53.17925559184));
#857 = CARTESIAN_POINT('',(21.495655515632,21.109927494167,
    -53.17266539822));
#858 = CARTESIAN_POINT('',(21.491538174023,21.074720395347,
    -53.16325194844));
#859 = CARTESIAN_POINT('',(21.48046680742,21.00173241648,-53.13805228323
    ));
#860 = CARTESIAN_POINT('',(21.473104307564,20.96416949671,
    -53.12135114147));
#861 = CARTESIAN_POINT('',(21.46458253402,20.928277293211,
    -53.10212178567));
#862 = CARTESIAN_POINT('',(21.455091865574,20.89397203402,
    -53.08085099281));
#863 = CARTESIAN_POINT('',(21.432248292336,20.821302989118,
    -53.03004025186));
#864 = CARTESIAN_POINT('',(21.418485872938,20.783579874805,
    -52.99966542063));
#865 = CARTESIAN_POINT('',(21.403735285666,20.747815872904,
    -52.9674175221));
#866 = CARTESIAN_POINT('',(21.388153824487,20.713808644169,
    -52.93370275404));
#867 = CARTESIAN_POINT('',(21.351545238729,20.64110172253,
    -52.85535219693));
#868 = CARTESIAN_POINT('',(21.33010711711,20.603224558599,-52.8100333227
    ));
#869 = CARTESIAN_POINT('',(21.307723705153,20.567513213737,
    -52.76336270537));
#870 = CARTESIAN_POINT('',(21.284519391949,20.533739145426,
    -52.71566004396));
#871 = CARTESIAN_POINT('',(21.229729229655,20.460580137511,
    -52.60466067625));
#872 = CARTESIAN_POINT('',(21.197641369071,20.422312533223,
    -52.54079108138));
#873 = CARTESIAN_POINT('',(21.164460751723,20.386643579207,
    -52.47597353053));
#874 = CARTESIAN_POINT('',(21.130296226214,20.353351152163,
    -52.41048086914));
#875 = CARTESIAN_POINT('',(21.051670390091,20.283793142859,
    -52.26262328136));
#876 = CARTESIAN_POINT('',(21.006720466916,20.248706607073,
    -52.17999373503));
#877 = CARTESIAN_POINT('',(20.960453776102,20.216784972529,-52.096912968
    ));
#878 = CARTESIAN_POINT('',(20.91296832359,20.18788960688,-52.01361242713
    ));
#879 = CARTESIAN_POINT('',(20.814048525191,20.13518693267,
    -51.84410620122));
#880 = CARTESIAN_POINT('',(20.762575633304,20.1115819298,-51.75795400267
    ));
#881 = CARTESIAN_POINT('',(20.709933313678,20.091078515465,
    -51.6719098222));
#882 = CARTESIAN_POINT('',(20.656199838611,20.073688353742,
    -51.58613084728));
#883 = CARTESIAN_POINT('',(20.543234258598,20.044372728299,
    -51.40997177005));
#884 = CARTESIAN_POINT('',(20.483886552792,20.0328609961,-51.31966719899
    ));
#885 = CARTESIAN_POINT('',(20.423482589169,20.02502190301,
    -51.22997891223));
#886 = CARTESIAN_POINT('',(20.362139317186,20.020999908447,
    -51.14107955963));
#887 = CARTESIAN_POINT('',(20.3,20.020999908447,-51.05314634196));
#888 = ORIENTED_EDGE('',*,*,#800,.T.);
#889 = ORIENTED_EDGE('',*,*,#401,.F.);
#890 = CYLINDRICAL_SURFACE('',#891,1.2);
#891 = AXIS2_PLACEMENT_3D('',#892,#893,#894);
#892 = CARTESIAN_POINT('',(20.3,21.220999908447,-68.97846221923));
#893 = DIRECTION('',(-4.613047254803E-16,2.22044604925E-16,1.));
#894 = DIRECTION('',(1.,1.024302255193E-31,4.613047254803E-16));
#895 = ADVANCED_FACE('',(#896),#907,.T.);
#896 = FACE_BOUND('',#897,.T.);
#897 = EDGE_LOOP('',(#898,#899,#900,#906));
#898 = ORIENTED_EDGE('',*,*,#594,.T.);
#899 = ORIENTED_EDGE('',*,*,#729,.T.);
#900 = ORIENTED_EDGE('',*,*,#901,.F.);
#901 = EDGE_CURVE('',#784,#722,#902,.T.);
#902 = LINE('',#903,#904);
#903 = CARTESIAN_POINT('',(-0.499999999999,20.020999908447,
    -62.97846221924));
#904 = VECTOR('',#905,1.);
#905 = DIRECTION('',(8.659560562355E-17,-1.,2.218671295934E-31));
#906 = ORIENTED_EDGE('',*,*,#783,.F.);
#907 = CYLINDRICAL_SURFACE('',#908,6.);
#908 = AXIS2_PLACEMENT_3D('',#909,#910,#911);
#909 = CARTESIAN_POINT('',(5.5,20.020999908447,-62.97846221923));
#910 = DIRECTION('',(-8.659560562355E-17,1.,6.661338147751E-16));
#911 = DIRECTION('',(-1.,-8.659560562355E-17,8.659560562355E-17));
#912 = ADVANCED_FACE('',(#913),#955,.F.);
#913 = FACE_BOUND('',#914,.T.);
#914 = EDGE_LOOP('',(#915,#916,#917,#918));
#915 = ORIENTED_EDGE('',*,*,#663,.F.);
#916 = ORIENTED_EDGE('',*,*,#577,.T.);
#917 = ORIENTED_EDGE('',*,*,#826,.T.);
#918 = ORIENTED_EDGE('',*,*,#919,.F.);
#919 = EDGE_CURVE('',#656,#818,#920,.T.);
#920 = B_SPLINE_CURVE_WITH_KNOTS('',5,(#921,#922,#923,#924,#925,#926,
    #927,#928,#929,#930,#931,#932,#933,#934,#935,#936,#937,#938,#939,
    #940,#941,#942,#943,#944,#945,#946,#947,#948,#949,#950,#951,#952,
    #953,#954),.UNSPECIFIED.,.F.,.F.,(6,4,4,4,4,4,4,4,6),(0.,
    6.151954526874E-02,0.133291908436,0.220378305006,0.328286018143,
    0.466506107751,0.63720701552,0.813112627701,1.),.UNSPECIFIED.);
#921 = CARTESIAN_POINT('',(21.5,21.220999908447,-62.77429374255));
#922 = CARTESIAN_POINT('',(21.5,21.183414453311,-62.77429374255));
#923 = CARTESIAN_POINT('',(21.498528441691,21.146275776882,
    -62.77766884663));
#924 = CARTESIAN_POINT('',(21.495655515632,21.109927494167,
    -62.78425904025));
#925 = CARTESIAN_POINT('',(21.491538174023,21.074720395347,
    -62.79367249003));
#926 = CARTESIAN_POINT('',(21.48046680742,21.00173241648,-62.81887215524
    ));
#927 = CARTESIAN_POINT('',(21.473104307564,20.96416949671,-62.835573297)
  );
#928 = CARTESIAN_POINT('',(21.46458253402,20.928277293211,-62.8548026528
    ));
#929 = CARTESIAN_POINT('',(21.455091865574,20.89397203402,
    -62.87607344566));
#930 = CARTESIAN_POINT('',(21.432248292336,20.821302989117,
    -62.92688418661));
#931 = CARTESIAN_POINT('',(21.418485872938,20.783579874805,
    -62.95725901784));
#932 = CARTESIAN_POINT('',(21.403735285666,20.747815872904,
    -62.98950691637));
#933 = CARTESIAN_POINT('',(21.388153824487,20.713808644169,
    -63.02322168443));
#934 = CARTESIAN_POINT('',(21.351545238729,20.64110172253,
    -63.10157224154));
#935 = CARTESIAN_POINT('',(21.33010711711,20.603224558599,
    -63.14689111577));
#936 = CARTESIAN_POINT('',(21.307723705153,20.567513213737,
    -63.1935617331));
#937 = CARTESIAN_POINT('',(21.284519391949,20.533739145426,
    -63.24126439451));
#938 = CARTESIAN_POINT('',(21.229729229655,20.460580137511,
    -63.35226376221));
#939 = CARTESIAN_POINT('',(21.197641369071,20.422312533223,
    -63.41613335709));
#940 = CARTESIAN_POINT('',(21.164460751723,20.386643579207,
    -63.48095090794));
#941 = CARTESIAN_POINT('',(21.130296226214,20.353351152163,
    -63.54644356932));
#942 = CARTESIAN_POINT('',(21.051670390091,20.283793142859,
    -63.69430115711));
#943 = CARTESIAN_POINT('',(21.006720466916,20.248706607073,
    -63.77693070343));
#944 = CARTESIAN_POINT('',(20.960453776102,20.216784972529,
    -63.86001147047));
#945 = CARTESIAN_POINT('',(20.91296832359,20.18788960688,-63.94331201133
    ));
#946 = CARTESIAN_POINT('',(20.814048525191,20.13518693267,
    -64.11281823725));
#947 = CARTESIAN_POINT('',(20.762575633304,20.1115819298,-64.19897043579
    ));
#948 = CARTESIAN_POINT('',(20.709933313678,20.091078515465,
    -64.28501461627));
#949 = CARTESIAN_POINT('',(20.656199838612,20.073688353742,
    -64.37079359118));
#950 = CARTESIAN_POINT('',(20.543234258598,20.044372728299,
    -64.54695266842));
#951 = CARTESIAN_POINT('',(20.483886552792,20.032860996099,
    -64.63725723948));
#952 = CARTESIAN_POINT('',(20.423482589169,20.02502190301,
    -64.72694552624));
#953 = CARTESIAN_POINT('',(20.362139317186,20.020999908447,
    -64.81584487884));
#954 = CARTESIAN_POINT('',(20.3,20.020999908447,-64.90377809651));
#955 = CYLINDRICAL_SURFACE('',#956,1.2);
#956 = AXIS2_PLACEMENT_3D('',#957,#958,#959);
#957 = CARTESIAN_POINT('',(20.3,21.220999908447,-68.97846221923));
#958 = DIRECTION('',(-4.613047254803E-16,2.22044604925E-16,1.));
#959 = DIRECTION('',(1.,1.024302255193E-31,4.613047254803E-16));
#960 = ADVANCED_FACE('',(#961),#980,.F.);
#961 = FACE_BOUND('',#962,.F.);
#962 = EDGE_LOOP('',(#963,#972,#979));
#963 = ORIENTED_EDGE('',*,*,#964,.T.);
#964 = EDGE_CURVE('',#648,#965,#967,.T.);
#965 = VERTEX_POINT('',#966);
#966 = CARTESIAN_POINT('',(22.5,21.220999908447,-57.97846221923));
#967 = CIRCLE('',#968,12.);
#968 = AXIS2_PLACEMENT_3D('',#969,#970,#971);
#969 = CARTESIAN_POINT('',(10.5,21.220999908447,-57.97846221923));
#970 = DIRECTION('',(-0.,1.,2.22044604925E-16));
#971 = DIRECTION('',(1.,0.,0.));
#972 = ORIENTED_EDGE('',*,*,#973,.T.);
#973 = EDGE_CURVE('',#965,#656,#974,.T.);
#974 = CIRCLE('',#975,12.);
#975 = AXIS2_PLACEMENT_3D('',#976,#977,#978);
#976 = CARTESIAN_POINT('',(10.5,21.220999908447,-57.97846221923));
#977 = DIRECTION('',(-0.,1.,2.22044604925E-16));
#978 = DIRECTION('',(1.,0.,0.));
#979 = ORIENTED_EDGE('',*,*,#655,.T.);
#980 = PLANE('',#981);
#981 = AXIS2_PLACEMENT_3D('',#982,#983,#984);
#982 = CARTESIAN_POINT('',(10.5,21.220999908447,-57.97846221923));
#983 = DIRECTION('',(0.,1.,2.22044604925E-16));
#984 = DIRECTION('',(1.,0.,0.));
#985 = ADVANCED_FACE('',(#986),#992,.T.);
#986 = FACE_BOUND('',#987,.T.);
#987 = EDGE_LOOP('',(#988,#989,#990,#991));
#988 = ORIENTED_EDGE('',*,*,#901,.T.);
#989 = ORIENTED_EDGE('',*,*,#721,.T.);
#990 = ORIENTED_EDGE('',*,*,#757,.F.);
#991 = ORIENTED_EDGE('',*,*,#792,.F.);
#992 = PLANE('',#993);
#993 = AXIS2_PLACEMENT_3D('',#994,#995,#996);
#994 = CARTESIAN_POINT('',(-0.499999999998,20.020999908447,
    -62.97846221924));
#995 = DIRECTION('',(-1.,-8.659560562355E-17,8.659560562355E-17));
#996 = DIRECTION('',(8.659560562355E-17,-6.661338147751E-16,1.));
#997 = ADVANCED_FACE('',(#998),#1009,.F.);
#998 = FACE_BOUND('',#999,.F.);
#999 = EDGE_LOOP('',(#1000,#1001,#1007,#1008));
#1000 = ORIENTED_EDGE('',*,*,#834,.F.);
#1001 = ORIENTED_EDGE('',*,*,#1002,.T.);
#1002 = EDGE_CURVE('',#835,#741,#1003,.T.);
#1003 = LINE('',#1004,#1005);
#1004 = CARTESIAN_POINT('',(4.5,20.020999908447,-57.97846221923));
#1005 = VECTOR('',#1006,1.);
#1006 = DIRECTION('',(8.659560562355E-17,-1.,2.218671295934E-31));
#1007 = ORIENTED_EDGE('',*,*,#740,.T.);
#1008 = ORIENTED_EDGE('',*,*,#1002,.F.);
#1009 = CYLINDRICAL_SURFACE('',#1010,6.);
#1010 = AXIS2_PLACEMENT_3D('',#1011,#1012,#1013);
#1011 = CARTESIAN_POINT('',(10.5,20.020999908447,-57.97846221923));
#1012 = DIRECTION('',(-8.659560562355E-17,1.,6.661338147751E-16));
#1013 = DIRECTION('',(-1.,-8.659560562355E-17,8.659560562355E-17));
#1014 = ADVANCED_FACE('',(#1015),#1023,.F.);
#1015 = FACE_BOUND('',#1016,.F.);
#1016 = EDGE_LOOP('',(#1017,#1018,#1019,#1020,#1021,#1022));
#1017 = ORIENTED_EDGE('',*,*,#852,.T.);
#1018 = ORIENTED_EDGE('',*,*,#808,.T.);
#1019 = ORIENTED_EDGE('',*,*,#817,.T.);
#1020 = ORIENTED_EDGE('',*,*,#919,.F.);
#1021 = ORIENTED_EDGE('',*,*,#973,.F.);
#1022 = ORIENTED_EDGE('',*,*,#964,.F.);
#1023 = CYLINDRICAL_SURFACE('',#1024,12.);
#1024 = AXIS2_PLACEMENT_3D('',#1025,#1026,#1027);
#1025 = CARTESIAN_POINT('',(10.5,20.020999908447,-57.97846221923));
#1026 = DIRECTION('',(0.,1.,2.22044604925E-16));
#1027 = DIRECTION('',(1.,0.,0.));
#1028 = ( GEOMETRIC_REPRESENTATION_CONTEXT(3) 
GLOBAL_UNCERTAINTY_ASSIGNED_CONTEXT((#1032)) 
GLOBAL_UNIT_ASSIGNED_CONTEXT((#1029,#1030,#1031)) REPRESENTATION_CONTEXT
('Context #1','3D Context with UNIT and UNCERTAINTY') );
#1029 = ( LENGTH_UNIT() NAMED_UNIT(*) SI_UNIT(.MILLI.,.METRE.) );
#1030 = ( NAMED_UNIT(*) PLANE_ANGLE_UNIT() SI_UNIT($,.RADIAN.) );
#1031 = ( NAMED_UNIT(*) SI_UNIT($,.STERADIAN.) SOLID_ANGLE_UNIT() );
#1032 = UNCERTAINTY_MEASURE_WITH_UNIT(LENGTH_MEASURE(5.E-07),#1029,
  'distance_accuracy_value','confusion accuracy');
#1033 = SHAPE_DEFINITION_REPRESENTATION(#1034,#25);
#1034 = PRODUCT_DEFINITION_SHAPE('','',#1035);
#1035 = PRODUCT_DEFINITION('design','',#1036,#1039);
#1036 = PRODUCT_DEFINITION_FORMATION('','',#1037);
#1037 = PRODUCT('Extruder_titan_piece_inductive_sensor',
  'Extruder_titan_piece_inductive_sensor','',(#1038));
#1038 = MECHANICAL_CONTEXT('',#2,'mechanical');
#1039 = PRODUCT_DEFINITION_CONTEXT('part definition',#2,'design');
#1040 = CONTEXT_DEPENDENT_SHAPE_REPRESENTATION(#1041,#1043);
#1041 = ( REPRESENTATION_RELATIONSHIP('','',#25,#10) 
REPRESENTATION_RELATIONSHIP_WITH_TRANSFORMATION(#1042) 
SHAPE_REPRESENTATION_RELATIONSHIP() );
#1042 = ITEM_DEFINED_TRANSFORMATION('','',#11,#15);
#1043 = PRODUCT_DEFINITION_SHAPE('Placement','Placement of an item',
  #1044);
#1044 = NEXT_ASSEMBLY_USAGE_OCCURRENCE('1','=>[0:1:1:2]','',#5,#1035,$);
#1045 = PRODUCT_TYPE('part',$,(#1037));
#1046 = MECHANICAL_DESIGN_GEOMETRIC_PRESENTATION_REPRESENTATION('',(
    #1047),#1028);
#1047 = STYLED_ITEM('color',(#1048),#26);
#1048 = PRESENTATION_STYLE_ASSIGNMENT((#1049,#1055));
#1049 = SURFACE_STYLE_USAGE(.BOTH.,#1050);
#1050 = SURFACE_SIDE_STYLE('',(#1051));
#1051 = SURFACE_STYLE_FILL_AREA(#1052);
#1052 = FILL_AREA_STYLE('',(#1053));
#1053 = FILL_AREA_STYLE_COLOUR('',#1054);
#1054 = COLOUR_RGB('',0.,0.521568655968,0.662745118141);
#1055 = CURVE_STYLE('',#1056,POSITIVE_LENGTH_MEASURE(0.1),#1054);
#1056 = DRAUGHTING_PRE_DEFINED_CURVE_FONT('continuous');
ENDSEC;
END-ISO-10303-21;
