<?xml version="1.0" encoding="UTF-8" standalone="no"?>
<svg
   xmlns:dc="http://purl.org/dc/elements/1.1/"
   xmlns:cc="http://creativecommons.org/ns#"
   xmlns:rdf="http://www.w3.org/1999/02/22-rdf-syntax-ns#"
   xmlns:svg="http://www.w3.org/2000/svg"
   xmlns="http://www.w3.org/2000/svg"
   xmlns:sodipodi="http://sodipodi.sourceforge.net/DTD/sodipodi-0.dtd"
   xmlns:inkscape="http://www.inkscape.org/namespaces/inkscape"
   xml:space="preserve"
   enable-background="new 0 0 612 792"
   viewBox="0 0 927.75116 304.73367"
   height="304.73367"
   width="927.75116"
   y="0px"
   x="0px"
   id="Capa_1"
   version="1.1"
   sodipodi:docname="logo-sin_texto.svg"
   inkscape:version="0.92.1 r15371"><sodipodi:namedview
     pagecolor="#ffffff"
     bordercolor="#666666"
     borderopacity="1"
     objecttolerance="10"
     gridtolerance="10"
     guidetolerance="10"
     inkscape:pageopacity="0"
     inkscape:pageshadow="2"
     inkscape:window-width="1920"
     inkscape:window-height="1021"
     id="namedview13"
     showgrid="false"
     inkscape:zoom="0.46779785"
     inkscape:cx="463.87558"
     inkscape:cy="152.36684"
     inkscape:window-x="0"
     inkscape:window-y="0"
     inkscape:window-maximized="1"
     inkscape:current-layer="g4256" /><metadata
     id="metadata27"><rdf:RDF><cc:Work
         rdf:about=""><dc:format>image/svg+xml</dc:format><dc:type
           rdf:resource="http://purl.org/dc/dcmitype/StillImage" /><dc:title></dc:title></cc:Work></rdf:RDF></metadata><defs
     id="defs25" /><g
     transform="translate(285.05319,350.64329)"
     id="g4256"><g
       id="g4252"><path
         style="fill:#0085a9;fill-opacity:1"
         id="path15"
         d="m -154.8044,-198.85171 c 2.37596,-2.32352 33.88966,-33.811 39.25505,-39.17639 5.36618,-5.36538 4.48652,-12.95814 4.48652,-12.95814 l 0,-65.3978 c 0,0 -0.36713,-5.60457 -4.71935,-1.25155 l -99.48851,99.48771 -8.52169,9.25434 c 0,0 -8.87291,10.02434 -0.78271,19.48131 8.09019,9.45698 31.54548,32.97743 31.54548,32.97743 l 77.67733,77.891874 c 0,0 4.29104,4.452349 4.29104,-2.963995 0,-7.417934 0,-66.491229 0,-66.491229 0,0 -0.0962,-6.20213 -5.26288,-11.36409 -8e-4,0 -39.0858,-38.89747 -38.48028,-39.48947 z" /><path
         id="path17"
         d="m -79.058134,-319.30585 c -2.340515,-0.50877 -2.191457,3.29185 -2.191457,3.29185 l -0.0016,65.11985 c 7.95e-4,7.87485 4.162538,12.09027 4.162538,12.09027 0,0 18.262761,18.25966 28.026462,28.02337 9.762906,9.76131 11.604484,13.03235 11.604484,13.03235 0,0 -13.816419,14.23142 -18.869514,18.89434 -5.053094,4.66293 -8.692888,0.58512 -8.692888,0.58512 -3.31284,-3.4074 -0.130376,-7.40006 -0.130376,-7.40006 l 4.853188,-5.17755 c 4.395135,-4.52704 2.618264,-8.19779 2.618264,-8.19779 -0.6222,-1.94607 -2.72225,-3.95301 -2.72225,-3.95301 -21.184219,-20.17265 -41.485617,-4.92768 -41.485617,-4.92768 l 24.365225,24.16347 c 3.30251,3.27073 1.680847,6.31674 1.680847,6.31674 -2.758978,3.26278 -7.410916,-1.0383 -7.410916,-1.0383 L -107.603,-202.38716 c -3.9859,5.46789 -6.92737,14.08178 -4.7461,23.40763 2.18367,9.32665 10.08196,17.61548 10.08196,17.61548 6.319743,6.56211 11.666567,0.3042 11.666567,0.3042 l 4.657628,-4.39068 c 0,0 4.163816,-3.58862 8.048795,0.29954 3.886568,3.88657 0.339898,8.06743 0.339898,8.06743 -3.919943,5.17944 -3.696928,10.29458 -3.696928,10.29458 0,0 -0.0016,60.860128 0,66.662565 7.95e-4,5.804821 4.814386,1.181092 4.814386,1.181092 0,0 91.48134,-91.904387 105.505088,-105.790667 14.023748,-13.88707 1.404584,-25.76516 1.404584,-25.76516 L -75.78957,-317.06006 c -1.430942,-1.42737 -2.488389,-2.07619 -3.268564,-2.24579 z m 5.033221,113.40646 a 5.4345204,5.4345204 0 0 1 0.541656,0.0279 5.4345204,5.4345204 0 0 1 0.537,0.0807 5.4345204,5.4345204 0 0 1 0.526137,0.13347 5.4345204,5.4345204 0 0 1 0.510609,0.18624 5.4345204,5.4345204 0 0 1 0.488893,0.23746 5.4345204,5.4345204 0 0 1 0.464052,0.28402 5.4345204,5.4345204 0 0 1 0.431464,0.32748 5.4345204,5.4345204 0 0 1 0.397318,0.37094 5.4345204,5.4345204 0 0 1 0.358516,0.40818 5.4345204,5.4345204 0 0 1 0.316615,0.44232 5.4345204,5.4345204 0 0 1 0.270049,0.47027 5.4345204,5.4345204 0 0 1 0.221943,0.49665 5.4345204,5.4345204 0 0 1 0.172277,0.51526 5.4345204,5.4345204 0 0 1 0.117956,0.52925 5.4345204,5.4345204 0 0 1 0.06516,0.54011 5.4345204,5.4345204 0 0 1 0.01398,0.38489 5.4345204,5.4345204 0 0 1 -0.02638,0.54166 5.4345204,5.4345204 0 0 1 -0.08225,0.537 5.4345204,5.4345204 0 0 1 -0.133475,0.52614 5.4345204,5.4345204 0 0 1 -0.186247,0.51061 5.4345204,5.4345204 0 0 1 -0.237454,0.48889 5.4345204,5.4345204 0 0 1 -0.282469,0.46406 5.4345204,5.4345204 0 0 1 -0.329035,0.43146 5.4345204,5.4345204 0 0 1 -0.370929,0.39732 5.4345204,5.4345204 0 0 1 -0.408181,0.35852 5.4345204,5.4345204 0 0 1 -0.442334,0.31661 5.4345204,5.4345204 0 0 1 -0.470258,0.27005 5.4345204,5.4345204 0 0 1 -0.496648,0.22194 5.4345204,5.4345204 0 0 1 -0.515275,0.17227 5.4345204,5.4345204 0 0 1 -0.529244,0.11796 5.4345204,5.4345204 0 0 1 -0.540098,0.0652 5.4345204,5.4345204 0 0 1 -0.383349,0.014 5.4345204,5.4345204 0 0 1 -0.543213,-0.0264 5.4345204,5.4345204 0 0 1 -0.537,-0.0823 5.4345204,5.4345204 0 0 1 -0.526137,-0.13347 5.4345204,5.4345204 0 0 1 -0.510618,-0.18624 5.4345204,5.4345204 0 0 1 -0.488884,-0.23592 5.4345204,5.4345204 0 0 1 -0.46406,-0.28401 5.4345204,5.4345204 0 0 1 -0.431464,-0.32903 5.4345204,5.4345204 0 0 1 -0.397318,-0.37094 5.4345204,5.4345204 0 0 1 -0.358516,-0.40818 5.4345204,5.4345204 0 0 1 -0.316607,-0.44233 5.4345204,5.4345204 0 0 1 -0.270058,-0.47026 5.4345204,5.4345204 0 0 1 -0.221934,-0.49665 5.4345204,5.4345204 0 0 1 -0.170727,-0.51527 5.4345204,5.4345204 0 0 1 -0.119506,-0.52924 5.4345204,5.4345204 0 0 1 -0.06516,-0.54011 5.4345204,5.4345204 0 0 1 -0.01399,-0.38334 5.4345204,5.4345204 0 0 1 0.02638,-0.54321 5.4345204,5.4345204 0 0 1 0.08226,-0.537 5.4345204,5.4345204 0 0 1 0.133475,-0.52614 5.4345204,5.4345204 0 0 1 0.186239,-0.51061 5.4345204,5.4345204 0 0 1 0.237462,-0.4889 5.4345204,5.4345204 0 0 1 0.284019,-0.46405 5.4345204,5.4345204 0 0 1 0.327477,-0.43146 5.4345204,5.4345204 0 0 1 0.370937,-0.39732 5.4345204,5.4345204 0 0 1 0.408181,-0.35852 5.4345204,5.4345204 0 0 1 0.442326,-0.31661 5.4345204,5.4345204 0 0 1 0.470266,-0.27005 5.4345204,5.4345204 0 0 1 0.496648,-0.22194 5.4345204,5.4345204 0 0 1 0.515274,-0.17072 5.4345204,5.4345204 0 0 1 0.529236,-0.11951 5.4345204,5.4345204 0 0 1 0.540107,-0.0652 5.4345204,5.4345204 0 0 1 0.384906,-0.014 z m -26.123677,24.37455 a 5.4353151,5.4353151 0 0 1 0.543202,0.0264 5.4353151,5.4353151 0 0 1 0.537,0.0807 5.4353151,5.4353151 0 0 1 0.526136,0.13503 5.4353151,5.4353151 0 0 1 0.510618,0.18624 5.4353151,5.4353151 0 0 1 0.488884,0.23591 5.4353151,5.4353151 0 0 1 0.462503,0.28402 5.4353151,5.4353151 0 0 1 0.433013,0.32903 5.4353151,5.4353151 0 0 1 0.397319,0.37093 5.4353151,5.4353151 0 0 1 0.358524,0.40819 5.4353151,5.4353151 0 0 1 0.316607,0.44232 5.4353151,5.4353151 0 0 1 0.270057,0.47026 5.4353151,5.4353151 0 0 1 0.221942,0.49665 5.4353151,5.4353151 0 0 1 0.172269,0.51527 5.4353151,5.4353151 0 0 1 0.117956,0.52925 5.4353151,5.4353151 0 0 1 0.06516,0.5401 5.4353151,5.4353151 0 0 1 0.01399,0.3849 5.4353151,5.4353151 0 0 1 -0.02638,0.54166 5.4353151,5.4353151 0 0 1 -0.08226,0.537 5.4353151,5.4353151 0 0 1 -0.133475,0.52769 5.4353151,5.4353151 0 0 1 -0.186239,0.50906 5.4353151,5.4353151 0 0 1 -0.237461,0.49045 5.4353151,5.4353151 0 0 1 -0.284019,0.4625 5.4353151,5.4353151 0 0 1 -0.327478,0.43301 5.4353151,5.4353151 0 0 1 -0.370936,0.39732 5.4353151,5.4353151 0 0 1 -0.408181,0.35852 5.4353151,5.4353151 0 0 1 -0.442327,0.31661 5.4353151,5.4353151 0 0 1 -0.470266,0.27005 5.4353151,5.4353151 0 0 1 -0.496648,0.22194 5.4353151,5.4353151 0 0 1 -0.515274,0.17072 5.4353151,5.4353151 0 0 1 -0.530793,0.11951 5.4353151,5.4353151 0 0 1 -0.538549,0.0652 5.4353151,5.4353151 0 0 1 -0.384894,0.014 5.4353151,5.4353151 0 0 1 -0.54322,-0.028 5.4353151,5.4353151 0 0 1 -0.53699,-0.0807 5.4353151,5.4353151 0 0 1 -0.52614,-0.13502 5.4353151,5.4353151 0 0 1 -0.51062,-0.18624 5.4353151,5.4353151 0 0 1 -0.48888,-0.23591 5.4353151,5.4353151 0 0 1 -0.46251,-0.28402 5.4353151,5.4353151 0 0 1 -0.43302,-0.32903 5.4353151,5.4353151 0 0 1 -0.39732,-0.36939 5.4353151,5.4353151 0 0 1 -0.35851,-0.40818 5.4353151,5.4353151 0 0 1 -0.31661,-0.44233 5.4353151,5.4353151 0 0 1 -0.27006,-0.47181 5.4353151,5.4353151 0 0 1 -0.22193,-0.4951 5.4353151,5.4353151 0 0 1 -0.17073,-0.51682 5.4353151,5.4353151 0 0 1 -0.1195,-0.52924 5.4353151,5.4353151 0 0 1 -0.0652,-0.54011 5.4353151,5.4353151 0 0 1 -0.014,-0.38334 5.4353151,5.4353151 0 0 1 0.0264,-0.54321 5.4353151,5.4353151 0 0 1 0.0823,-0.53701 5.4353151,5.4353151 0 0 1 0.13348,-0.52613 5.4353151,5.4353151 0 0 1 0.18624,-0.51061 5.4353151,5.4353151 0 0 1 0.23746,-0.4889 5.4353151,5.4353151 0 0 1 0.28402,-0.46405 5.4353151,5.4353151 0 0 1 0.32903,-0.43146 5.4353151,5.4353151 0 0 1 0.36938,-0.39887 5.4353151,5.4353151 0 0 1 0.40818,-0.35852 5.4353151,5.4353151 0 0 1 0.44233,-0.31506 5.4353151,5.4353151 0 0 1 0.47182,-0.27005 5.4353151,5.4353151 0 0 1 0.49509,-0.22194 5.4353151,5.4353151 0 0 1 0.51528,-0.17228 5.4353151,5.4353151 0 0 1 0.53079,-0.11795 5.4353151,5.4353151 0 0 1 0.53855,-0.0668 5.4353151,5.4353151 0 0 1 0.38491,-0.0124 z"
         style="fill:#0085a9;fill-opacity:1" /></g></g></svg>