EESchema Schematic File Version 2
LIBS:power
LIBS:device
LIBS:switches
LIBS:relays
LIBS:motors
LIBS:transistors
LIBS:conn
LIBS:linear
LIBS:regul
LIBS:74xx
LIBS:cmos4000
LIBS:adc-dac
LIBS:memory
LIBS:xilinx
LIBS:microcontrollers
LIBS:dsp
LIBS:microchip
LIBS:analog_switches
LIBS:motorola
LIBS:texas
LIBS:intel
LIBS:audio
LIBS:interface
LIBS:digital-audio
LIBS:philips
LIBS:display
LIBS:cypress
LIBS:siliconi
LIBS:opto
LIBS:atmel
LIBS:contrib
LIBS:valves
LIBS:ESP8266
LIBS:Socket_ESP12E-cache
EELAYER 25 0
EELAYER END
$Descr A4 11693 8268
encoding utf-8
Sheet 1 1
Title "ESP8266 Programing (ESP12E)"
Date ""
Rev "1"
Comp "fAnDrEs"
Comment1 ""
Comment2 ""
Comment3 ""
Comment4 ""
$EndDescr
$Comp
L ESP-12E U1
U 1 1 5B3A8101
P 5850 3100
F 0 "U1" H 5850 3000 50  0000 C CNN
F 1 "ESP-12E" H 5850 3200 50  0000 C CNN
F 2 "ESP12E_Socket:ESP12E_Programing" H 5850 3100 50  0001 C CNN
F 3 "" H 5850 3100 50  0001 C CNN
	1    5850 3100
	1    0    0    -1  
$EndComp
$Comp
L VCC #PWR01
U 1 1 5B3A81FE
P 4800 3500
F 0 "#PWR01" H 4800 3350 50  0001 C CNN
F 1 "VCC" H 4800 3650 50  0000 C CNN
F 2 "" H 4800 3500 50  0001 C CNN
F 3 "" H 4800 3500 50  0001 C CNN
	1    4800 3500
	0    -1   -1   0   
$EndComp
$Comp
L GND #PWR02
U 1 1 5B3A8219
P 6900 3500
F 0 "#PWR02" H 6900 3250 50  0001 C CNN
F 1 "GND" H 6900 3350 50  0000 C CNN
F 2 "" H 6900 3500 50  0001 C CNN
F 3 "" H 6900 3500 50  0001 C CNN
	1    6900 3500
	1    0    0    -1  
$EndComp
$Comp
L VCC #PWR03
U 1 1 5B3A822F
P 4400 3000
F 0 "#PWR03" H 4400 2850 50  0001 C CNN
F 1 "VCC" H 4400 3150 50  0000 C CNN
F 2 "" H 4400 3000 50  0001 C CNN
F 3 "" H 4400 3000 50  0001 C CNN
	1    4400 3000
	0    -1   -1   0   
$EndComp
$Comp
L R R4
U 1 1 5B3A8252
P 8100 3500
F 0 "R4" V 8180 3500 50  0000 C CNN
F 1 "10k" V 8100 3500 50  0000 C CNN
F 2 "Resistor_THT:R_Axial_DIN0207_L6.3mm_D2.5mm_P7.62mm_Horizontal" V 8030 3500 50  0001 C CNN
F 3 "" H 8100 3500 50  0001 C CNN
	1    8100 3500
	0    1    1    0   
$EndComp
$Comp
L GND #PWR04
U 1 1 5B3A832E
P 8450 3500
F 0 "#PWR04" H 8450 3250 50  0001 C CNN
F 1 "GND" H 8450 3350 50  0000 C CNN
F 2 "" H 8450 3500 50  0001 C CNN
F 3 "" H 8450 3500 50  0001 C CNN
	1    8450 3500
	0    -1   -1   0   
$EndComp
NoConn ~ 5600 4000
NoConn ~ 5700 4000
NoConn ~ 5800 4000
NoConn ~ 5900 4000
NoConn ~ 6000 4000
NoConn ~ 6100 4000
$Comp
L Conn_01x06 J1
U 1 1 5B3A83BF
P 4750 5250
F 0 "J1" H 4750 5550 50  0000 C CNN
F 1 "PROG" V 4850 5200 50  0000 C CNN
F 2 "Connector_PinHeader_1.27mm:PinHeader_1x06_P1.27mm_Horizontal" H 4750 5250 50  0001 C CNN
F 3 "" H 4750 5250 50  0001 C CNN
	1    4750 5250
	1    0    0    -1  
$EndComp
$Comp
L R R3
U 1 1 5B3A867C
P 8100 3300
F 0 "R3" V 8000 3400 50  0000 C CNN
F 1 "10k" V 8100 3300 50  0000 C CNN
F 2 "Resistor_THT:R_Axial_DIN0207_L6.3mm_D2.5mm_P7.62mm_Horizontal" V 8030 3300 50  0001 C CNN
F 3 "" H 8100 3300 50  0001 C CNN
	1    8100 3300
	0    1    1    0   
$EndComp
$Comp
L VCC #PWR05
U 1 1 5B3A86E2
P 8450 3300
F 0 "#PWR05" H 8450 3150 50  0001 C CNN
F 1 "VCC" H 8450 3450 50  0000 C CNN
F 2 "" H 8450 3300 50  0001 C CNN
F 3 "" H 8450 3300 50  0001 C CNN
	1    8450 3300
	0    1    1    0   
$EndComp
Text Label 6850 3200 0    60   ~ 0
FlashEN
Text Label 7700 2750 2    60   ~ 0
FlashEN
$Comp
L R R2
U 1 1 5B3A89A6
P 8100 2550
F 0 "R2" V 8180 2550 50  0000 C CNN
F 1 "10k" V 8100 2550 50  0000 C CNN
F 2 "Resistor_THT:R_Axial_DIN0207_L6.3mm_D2.5mm_P7.62mm_Horizontal" V 8030 2550 50  0001 C CNN
F 3 "" H 8100 2550 50  0001 C CNN
	1    8100 2550
	0    -1   -1   0   
$EndComp
$Comp
L SW_Push SW2
U 1 1 5B3A89DD
P 8100 2900
F 0 "SW2" H 8150 3000 50  0000 L CNN
F 1 "SW_Flash" H 8100 2840 50  0000 C CNN
F 2 "Button_Switch_THT:SW_PUSH_6mm_h4.3mm" H 8100 3100 50  0001 C CNN
F 3 "" H 8100 3100 50  0001 C CNN
	1    8100 2900
	1    0    0    -1  
$EndComp
$Comp
L VCC #PWR06
U 1 1 5B3A8B73
P 8450 2550
F 0 "#PWR06" H 8450 2400 50  0001 C CNN
F 1 "VCC" H 8450 2700 50  0000 C CNN
F 2 "" H 8450 2550 50  0001 C CNN
F 3 "" H 8450 2550 50  0001 C CNN
	1    8450 2550
	0    1    1    0   
$EndComp
$Comp
L GND #PWR07
U 1 1 5B3A8B9F
P 8450 2900
F 0 "#PWR07" H 8450 2650 50  0001 C CNN
F 1 "GND" H 8450 2750 50  0000 C CNN
F 2 "" H 8450 2900 50  0001 C CNN
F 3 "" H 8450 2900 50  0001 C CNN
	1    8450 2900
	0    -1   -1   0   
$EndComp
Text Label 4850 2800 2    60   ~ 0
RST
Text Label 3700 2900 0    60   ~ 0
RST
$Comp
L R R1
U 1 1 5B3A9C01
P 3300 2700
F 0 "R1" V 3380 2700 50  0000 C CNN
F 1 "10k" V 3300 2700 50  0000 C CNN
F 2 "Resistor_THT:R_Axial_DIN0207_L6.3mm_D2.5mm_P7.62mm_Horizontal" V 3230 2700 50  0001 C CNN
F 3 "" H 3300 2700 50  0001 C CNN
	1    3300 2700
	0    1    -1   0   
$EndComp
$Comp
L SW_Push SW1
U 1 1 5B3A9C07
P 3300 3050
F 0 "SW1" H 3350 3150 50  0000 L CNN
F 1 "SW_Reset" H 3300 2990 50  0000 C CNN
F 2 "Button_Switch_THT:SW_PUSH_6mm_h4.3mm" H 3300 3250 50  0001 C CNN
F 3 "" H 3300 3250 50  0001 C CNN
	1    3300 3050
	-1   0    0    -1  
$EndComp
$Comp
L VCC #PWR08
U 1 1 5B3A9C12
P 2950 2700
F 0 "#PWR08" H 2950 2550 50  0001 C CNN
F 1 "VCC" H 2950 2850 50  0000 C CNN
F 2 "" H 2950 2700 50  0001 C CNN
F 3 "" H 2950 2700 50  0001 C CNN
	1    2950 2700
	0    -1   1    0   
$EndComp
$Comp
L GND #PWR09
U 1 1 5B3A9C18
P 2950 3050
F 0 "#PWR09" H 2950 2800 50  0001 C CNN
F 1 "GND" H 2950 2900 50  0000 C CNN
F 2 "" H 2950 3050 50  0001 C CNN
F 3 "" H 2950 3050 50  0001 C CNN
	1    2950 3050
	0    1    -1   0   
$EndComp
Text Label 6900 3300 0    60   ~ 0
GPIO2
Text Label 6900 3400 0    60   ~ 0
GPIO15
Text Label 7850 3300 2    60   ~ 0
GPIO2
Text Label 7850 3500 2    60   ~ 0
GPIO15
Text Label 6850 2800 0    60   ~ 0
TXD
Text Label 6850 2900 0    60   ~ 0
RXD
$Comp
L Conn_01x01 J3
U 1 1 5B3AB286
P 5250 5550
F 0 "J3" H 5250 5650 50  0000 C CNN
F 1 "Conn_GPIO5" H 5300 5450 50  0000 C CNN
F 2 "Connector_PinSocket_1.27mm:PinSocket_1x01_P1.27mm_Vertical" H 5250 5550 50  0001 C CNN
F 3 "" H 5250 5550 50  0001 C CNN
	1    5250 5550
	0    -1   -1   0   
$EndComp
NoConn ~ 4450 5150
NoConn ~ 4450 5550
Text Label 4450 5450 2    60   ~ 0
RXD
Text Label 4450 5350 2    60   ~ 0
TXD
$Comp
L GND #PWR010
U 1 1 5B3ABAEA
P 4400 5050
F 0 "#PWR010" H 4400 4800 50  0001 C CNN
F 1 "GND" H 4400 4900 50  0000 C CNN
F 2 "" H 4400 5050 50  0001 C CNN
F 3 "" H 4400 5050 50  0001 C CNN
	1    4400 5050
	0    1    1    0   
$EndComp
$Comp
L VCC #PWR011
U 1 1 5B3ABB10
P 4450 5250
F 0 "#PWR011" H 4450 5100 50  0001 C CNN
F 1 "VCC" H 4450 5400 50  0000 C CNN
F 2 "" H 4450 5250 50  0001 C CNN
F 3 "" H 4450 5250 50  0001 C CNN
	1    4450 5250
	0    -1   -1   0   
$EndComp
$Comp
L Conn_01x01 J5
U 1 1 5B3ABC6F
P 5700 5550
F 0 "J5" H 5700 5650 50  0000 C CNN
F 1 "Conn_GPIO4" H 5750 5450 50  0000 C CNN
F 2 "Connector_PinSocket_1.27mm:PinSocket_1x01_P1.27mm_Vertical" H 5700 5550 50  0001 C CNN
F 3 "" H 5700 5550 50  0001 C CNN
	1    5700 5550
	0    -1   -1   0   
$EndComp
$Comp
L Conn_01x01 J7
U 1 1 5B3ABCFE
P 6150 5550
F 0 "J7" H 6150 5650 50  0000 C CNN
F 1 "Conn_FlashEN" H 6200 5450 50  0000 C CNN
F 2 "Connector_PinSocket_1.27mm:PinSocket_1x01_P1.27mm_Vertical" H 6150 5550 50  0001 C CNN
F 3 "" H 6150 5550 50  0001 C CNN
	1    6150 5550
	0    -1   -1   0   
$EndComp
$Comp
L Conn_01x01 J9
U 1 1 5B3ABD05
P 6600 5550
F 0 "J9" H 6600 5650 50  0000 C CNN
F 1 "Conn_GPIO2" H 6650 5450 50  0000 C CNN
F 2 "Connector_PinSocket_1.27mm:PinSocket_1x01_P1.27mm_Vertical" H 6600 5550 50  0001 C CNN
F 3 "" H 6600 5550 50  0001 C CNN
	1    6600 5550
	0    -1   -1   0   
$EndComp
$Comp
L Conn_01x01 J11
U 1 1 5B3ABD5C
P 7050 5550
F 0 "J11" H 7050 5650 50  0000 C CNN
F 1 "Conn_GPIO15" H 7100 5450 50  0000 C CNN
F 2 "Connector_PinSocket_1.27mm:PinSocket_1x01_P1.27mm_Vertical" H 7050 5550 50  0001 C CNN
F 3 "" H 7050 5550 50  0001 C CNN
	1    7050 5550
	0    -1   -1   0   
$EndComp
$Comp
L Conn_01x01 J10
U 1 1 5B3AC0E3
P 7050 5050
F 0 "J10" H 7050 5150 50  0000 C CNN
F 1 "Conn_GPIO13" H 7050 4950 50  0000 C CNN
F 2 "Connector_PinSocket_1.27mm:PinSocket_1x01_P1.27mm_Vertical" H 7050 5050 50  0001 C CNN
F 3 "" H 7050 5050 50  0001 C CNN
	1    7050 5050
	0    1    1    0   
$EndComp
$Comp
L Conn_01x01 J8
U 1 1 5B3AC0EA
P 6600 5050
F 0 "J8" H 6600 5150 50  0000 C CNN
F 1 "Conn_GPIO12" H 6600 4950 50  0000 C CNN
F 2 "Connector_PinSocket_1.27mm:PinSocket_1x01_P1.27mm_Vertical" H 6600 5050 50  0001 C CNN
F 3 "" H 6600 5050 50  0001 C CNN
	1    6600 5050
	0    1    1    0   
$EndComp
$Comp
L Conn_01x01 J6
U 1 1 5B3AC0F1
P 6150 5050
F 0 "J6" H 6150 5150 50  0000 C CNN
F 1 "Conn_GPIO14" H 6100 4950 50  0000 C CNN
F 2 "Connector_PinSocket_1.27mm:PinSocket_1x01_P1.27mm_Vertical" H 6150 5050 50  0001 C CNN
F 3 "" H 6150 5050 50  0001 C CNN
	1    6150 5050
	0    1    1    0   
$EndComp
$Comp
L Conn_01x01 J4
U 1 1 5B3AC0F8
P 5700 5050
F 0 "J4" H 5700 5150 50  0000 C CNN
F 1 "Conn_GPIO16" H 5700 4950 50  0000 C CNN
F 2 "Connector_PinSocket_1.27mm:PinSocket_1x01_P1.27mm_Vertical" H 5700 5050 50  0001 C CNN
F 3 "" H 5700 5050 50  0001 C CNN
	1    5700 5050
	0    1    1    0   
$EndComp
$Comp
L Conn_01x01 J2
U 1 1 5B3AC0FF
P 5250 5050
F 0 "J2" H 5250 5150 50  0000 C CNN
F 1 "Conn_ADC" H 5250 4900 50  0000 C CNN
F 2 "Connector_PinSocket_1.27mm:PinSocket_1x01_P1.27mm_Vertical" H 5250 5050 50  0001 C CNN
F 3 "" H 5250 5050 50  0001 C CNN
	1    5250 5050
	0    1    1    0   
$EndComp
Wire Wire Line
	4950 3500 4800 3500
Wire Wire Line
	4400 3000 4950 3000
Wire Wire Line
	6750 3300 6900 3300
Wire Wire Line
	8250 3300 8450 3300
Wire Wire Line
	6750 3400 6900 3400
Wire Wire Line
	6750 3500 6900 3500
Wire Wire Line
	7700 2750 7850 2750
Wire Wire Line
	7850 2550 7850 2900
Wire Wire Line
	7850 2550 7950 2550
Wire Wire Line
	7850 2900 7900 2900
Connection ~ 7850 2750
Wire Wire Line
	8450 2900 8300 2900
Wire Wire Line
	8250 2550 8450 2550
Wire Wire Line
	3700 2900 3550 2900
Wire Wire Line
	3550 2700 3550 3050
Wire Wire Line
	3550 2700 3450 2700
Wire Wire Line
	3550 3050 3500 3050
Connection ~ 3550 2900
Wire Wire Line
	2950 3050 3100 3050
Wire Wire Line
	3150 2700 2950 2700
Wire Wire Line
	6850 3200 6750 3200
Wire Wire Line
	4850 2800 4950 2800
Wire Wire Line
	8450 3500 8250 3500
Wire Wire Line
	6850 2800 6750 2800
Wire Wire Line
	6850 2900 6750 2900
Wire Wire Line
	7950 3300 7850 3300
Wire Wire Line
	7850 3500 7950 3500
Wire Wire Line
	5250 5750 5250 5850
Wire Wire Line
	4550 5150 4450 5150
Wire Wire Line
	4550 5250 4450 5250
Wire Wire Line
	4550 5350 4450 5350
Wire Wire Line
	4550 5550 4450 5550
Wire Wire Line
	5700 5750 5700 5850
Wire Wire Line
	6150 5750 6150 5850
Wire Wire Line
	6600 5750 6600 5850
Wire Wire Line
	7050 5750 7050 5850
Wire Wire Line
	7050 4850 7050 4750
Wire Wire Line
	6600 4850 6600 4750
Wire Wire Line
	6150 4850 6150 4750
Wire Wire Line
	5700 4850 5700 4750
Wire Wire Line
	5250 4850 5250 4750
Wire Notes Line
	5000 4850 5000 5750
Wire Notes Line
	5000 4850 7300 4850
Wire Notes Line
	7300 4850 7300 5750
Wire Notes Line
	7300 5750 5000 5750
Wire Notes Line
	4900 5750 4500 5750
Wire Notes Line
	4500 5750 4500 4850
Wire Notes Line
	4500 4850 4900 4850
Text Label 4850 2900 2    60   ~ 0
ADC
Text Label 4850 3100 2    60   ~ 0
GPIO16
Text Label 4850 3200 2    60   ~ 0
GPIO14
Text Label 4850 3300 2    60   ~ 0
GPIO12
Text Label 4850 3400 2    60   ~ 0
GPIO13
Wire Wire Line
	4950 3400 4850 3400
Wire Wire Line
	4850 3300 4950 3300
Wire Wire Line
	4950 3200 4850 3200
Wire Wire Line
	4850 3100 4950 3100
Wire Wire Line
	4850 2900 4950 2900
Text Label 5250 4750 1    60   ~ 0
ADC
Text Label 5700 4750 1    60   ~ 0
GPIO16
Text Label 6150 4750 1    60   ~ 0
GPIO14
Text Label 6600 4750 1    60   ~ 0
GPIO12
Text Label 7050 4750 1    60   ~ 0
GPIO13
Text Label 6850 3000 0    60   ~ 0
GPIO5
Text Label 6850 3100 0    60   ~ 0
GPIO4
Wire Wire Line
	6850 3000 6750 3000
Wire Wire Line
	6750 3100 6850 3100
Text Label 7050 5850 3    60   ~ 0
GPIO15
Text Label 6600 5850 3    60   ~ 0
GPIO2
Text Label 6150 5850 3    60   ~ 0
FlashEN
Text Label 5700 5850 3    60   ~ 0
GPIO4
Text Label 5250 5850 3    60   ~ 0
GPIO5
Wire Notes Line
	4950 4000 6750 4000
Wire Notes Line
	6750 4000 6750 2350
Wire Notes Line
	6750 2350 4950 2350
Wire Notes Line
	4950 2350 4950 4000
$Comp
L VCC #PWR012
U 1 1 5B3AF678
P 8750 1050
F 0 "#PWR012" H 8750 900 50  0001 C CNN
F 1 "VCC" H 8750 1200 50  0000 C CNN
F 2 "" H 8750 1050 50  0001 C CNN
F 3 "" H 8750 1050 50  0001 C CNN
	1    8750 1050
	1    0    0    -1  
$EndComp
$Comp
L GND #PWR013
U 1 1 5B3AF6B0
P 9150 1200
F 0 "#PWR013" H 9150 950 50  0001 C CNN
F 1 "GND" H 9150 1050 50  0000 C CNN
F 2 "" H 9150 1200 50  0001 C CNN
F 3 "" H 9150 1200 50  0001 C CNN
	1    9150 1200
	1    0    0    -1  
$EndComp
$Comp
L PWR_FLAG #FLG014
U 1 1 5B3AF730
P 9150 1050
F 0 "#FLG014" H 9150 1125 50  0001 C CNN
F 1 "PWR_FLAG" H 9150 1200 50  0000 C CNN
F 2 "" H 9150 1050 50  0001 C CNN
F 3 "" H 9150 1050 50  0001 C CNN
	1    9150 1050
	1    0    0    -1  
$EndComp
$Comp
L PWR_FLAG #FLG015
U 1 1 5B3AF768
P 8750 1200
F 0 "#FLG015" H 8750 1275 50  0001 C CNN
F 1 "PWR_FLAG" H 8750 1350 50  0000 C CNN
F 2 "" H 8750 1200 50  0001 C CNN
F 3 "" H 8750 1200 50  0001 C CNN
	1    8750 1200
	-1   0    0    1   
$EndComp
Wire Wire Line
	8750 1050 8750 1200
Wire Wire Line
	9150 1200 9150 1050
$Comp
L GND #PWR016
U 1 1 5B3AFD7C
P 9950 1950
F 0 "#PWR016" H 9950 1700 50  0001 C CNN
F 1 "GND" H 9950 1800 50  0000 C CNN
F 2 "" H 9950 1950 50  0001 C CNN
F 3 "" H 9950 1950 50  0001 C CNN
	1    9950 1950
	1    0    0    -1  
$EndComp
$Comp
L VCC #PWR017
U 1 1 5B3AFDEA
P 9950 1050
F 0 "#PWR017" H 9950 900 50  0001 C CNN
F 1 "VCC" H 9950 1200 50  0000 C CNN
F 2 "" H 9950 1050 50  0001 C CNN
F 3 "" H 9950 1050 50  0001 C CNN
	1    9950 1050
	1    0    0    -1  
$EndComp
$Comp
L C C1
U 1 1 5B3AFEC1
P 9950 1500
F 0 "C1" H 9975 1600 50  0000 L CNN
F 1 "220nF" H 9975 1400 50  0000 L CNN
F 2 "Capacitor_THT:C_Disc_D8.0mm_W2.5mm_P5.00mm" H 9988 1350 50  0001 C CNN
F 3 "" H 9950 1500 50  0001 C CNN
	1    9950 1500
	1    0    0    -1  
$EndComp
$Comp
L CP C2
U 1 1 5B3AFF08
P 10350 1500
F 0 "C2" H 10375 1600 50  0000 L CNN
F 1 "1100uF" H 10375 1400 50  0000 L CNN
F 2 "Capacitor_THT:CP_Radial_D10.0mm_P5.00mm" H 10388 1350 50  0001 C CNN
F 3 "" H 10350 1500 50  0001 C CNN
	1    10350 1500
	1    0    0    -1  
$EndComp
Wire Wire Line
	9950 1350 9950 1050
Wire Wire Line
	9950 1650 9950 1950
$Comp
L VCC #PWR018
U 1 1 5B3AFFFE
P 10350 1050
F 0 "#PWR018" H 10350 900 50  0001 C CNN
F 1 "VCC" H 10350 1200 50  0000 C CNN
F 2 "" H 10350 1050 50  0001 C CNN
F 3 "" H 10350 1050 50  0001 C CNN
	1    10350 1050
	1    0    0    -1  
$EndComp
$Comp
L GND #PWR019
U 1 1 5B3B0045
P 10350 1950
F 0 "#PWR019" H 10350 1700 50  0001 C CNN
F 1 "GND" H 10350 1800 50  0000 C CNN
F 2 "" H 10350 1950 50  0001 C CNN
F 3 "" H 10350 1950 50  0001 C CNN
	1    10350 1950
	1    0    0    -1  
$EndComp
Wire Wire Line
	10350 1950 10350 1650
Wire Wire Line
	10350 1050 10350 1350
Text Notes 9700 650  0    60   ~ 0
POWER
Text Notes 5600 6500 0    60   ~ 0
CONNECTOR
Wire Notes Line
	5600 6450 3750 6450
Wire Notes Line
	3750 6450 3750 4250
Wire Notes Line
	3750 4250 8200 4250
Wire Notes Line
	8200 4250 8200 6450
Wire Notes Line
	8200 6450 6150 6450
Wire Notes Line
	9650 600  8550 600 
Wire Notes Line
	8550 600  8550 2200
Wire Notes Line
	8550 2200 10750 2200
Wire Notes Line
	10750 2200 10750 600 
Wire Notes Line
	10750 600  10050 600 
Wire Wire Line
	4450 5450 4550 5450
Wire Wire Line
	4400 5050 4550 5050
$Comp
L Conn_01x01 J12
U 1 1 5B3C1037
P 7550 4800
F 0 "J12" H 7700 4800 50  0000 C CNN
F 1 "Conn_3V3" H 7550 4700 50  0000 C CNN
F 2 "Connector_PinSocket_1.27mm:PinSocket_1x01_P1.27mm_Vertical" H 7550 4800 50  0001 C CNN
F 3 "" H 7550 4800 50  0001 C CNN
	1    7550 4800
	-1   0    0    1   
$EndComp
$Comp
L Conn_01x01 J13
U 1 1 5B3C10E9
P 7550 5000
F 0 "J13" H 7700 5000 50  0000 C CNN
F 1 "Conn_3V3" H 7550 4900 50  0000 C CNN
F 2 "Connector_PinSocket_1.27mm:PinSocket_1x01_P1.27mm_Vertical" H 7550 5000 50  0001 C CNN
F 3 "" H 7550 5000 50  0001 C CNN
	1    7550 5000
	-1   0    0    1   
$EndComp
$Comp
L Conn_01x01 J14
U 1 1 5B3C113F
P 7550 5200
F 0 "J14" H 7700 5200 50  0000 C CNN
F 1 "Conn_3V3" H 7550 5100 50  0000 C CNN
F 2 "Connector_PinSocket_1.27mm:PinSocket_1x01_P1.27mm_Vertical" H 7550 5200 50  0001 C CNN
F 3 "" H 7550 5200 50  0001 C CNN
	1    7550 5200
	-1   0    0    1   
$EndComp
$Comp
L Conn_01x01 J15
U 1 1 5B3C1198
P 7550 5450
F 0 "J15" H 7700 5450 50  0000 C CNN
F 1 "Conn_GND" H 7550 5350 50  0000 C CNN
F 2 "Connector_PinSocket_1.27mm:PinSocket_1x01_P1.27mm_Vertical" H 7550 5450 50  0001 C CNN
F 3 "" H 7550 5450 50  0001 C CNN
	1    7550 5450
	-1   0    0    1   
$EndComp
$Comp
L Conn_01x01 J16
U 1 1 5B3C11F6
P 7550 5650
F 0 "J16" H 7700 5650 50  0000 C CNN
F 1 "Conn_GND" H 7550 5550 50  0000 C CNN
F 2 "Connector_PinSocket_1.27mm:PinSocket_1x01_P1.27mm_Vertical" H 7550 5650 50  0001 C CNN
F 3 "" H 7550 5650 50  0001 C CNN
	1    7550 5650
	-1   0    0    1   
$EndComp
$Comp
L Conn_01x01 J17
U 1 1 5B3C13BB
P 7550 5900
F 0 "J17" H 7700 5900 50  0000 C CNN
F 1 "Conn_GND" H 7550 5800 50  0000 C CNN
F 2 "Connector_PinSocket_1.27mm:PinSocket_1x01_P1.27mm_Vertical" H 7550 5900 50  0001 C CNN
F 3 "" H 7550 5900 50  0001 C CNN
	1    7550 5900
	-1   0    0    1   
$EndComp
$Comp
L GND #PWR020
U 1 1 5B3C1611
P 7850 5900
F 0 "#PWR020" H 7850 5650 50  0001 C CNN
F 1 "GND" H 7850 5750 50  0000 C CNN
F 2 "" H 7850 5900 50  0001 C CNN
F 3 "" H 7850 5900 50  0001 C CNN
	1    7850 5900
	0    -1   -1   0   
$EndComp
$Comp
L GND #PWR021
U 1 1 5B3C16A7
P 7850 5650
F 0 "#PWR021" H 7850 5400 50  0001 C CNN
F 1 "GND" H 7850 5500 50  0000 C CNN
F 2 "" H 7850 5650 50  0001 C CNN
F 3 "" H 7850 5650 50  0001 C CNN
	1    7850 5650
	0    -1   -1   0   
$EndComp
$Comp
L GND #PWR022
U 1 1 5B3C189D
P 7850 5450
F 0 "#PWR022" H 7850 5200 50  0001 C CNN
F 1 "GND" H 7850 5300 50  0000 C CNN
F 2 "" H 7850 5450 50  0001 C CNN
F 3 "" H 7850 5450 50  0001 C CNN
	1    7850 5450
	0    -1   -1   0   
$EndComp
$Comp
L VCC #PWR023
U 1 1 5B3C18DE
P 7850 5200
F 0 "#PWR023" H 7850 5050 50  0001 C CNN
F 1 "VCC" H 7850 5350 50  0000 C CNN
F 2 "" H 7850 5200 50  0001 C CNN
F 3 "" H 7850 5200 50  0001 C CNN
	1    7850 5200
	0    1    1    0   
$EndComp
$Comp
L VCC #PWR024
U 1 1 5B3C1926
P 7850 5000
F 0 "#PWR024" H 7850 4850 50  0001 C CNN
F 1 "VCC" H 7850 5150 50  0000 C CNN
F 2 "" H 7850 5000 50  0001 C CNN
F 3 "" H 7850 5000 50  0001 C CNN
	1    7850 5000
	0    1    1    0   
$EndComp
$Comp
L VCC #PWR025
U 1 1 5B3C196E
P 7850 4800
F 0 "#PWR025" H 7850 4650 50  0001 C CNN
F 1 "VCC" H 7850 4950 50  0000 C CNN
F 2 "" H 7850 4800 50  0001 C CNN
F 3 "" H 7850 4800 50  0001 C CNN
	1    7850 4800
	0    1    1    0   
$EndComp
Wire Wire Line
	7750 5900 7850 5900
Wire Wire Line
	7850 5650 7750 5650
Wire Wire Line
	7850 5450 7750 5450
Wire Wire Line
	7850 5200 7750 5200
Wire Wire Line
	7850 5000 7750 5000
Wire Wire Line
	7850 4800 7750 4800
Wire Notes Line
	7450 6050 7750 6050
Wire Notes Line
	7750 6050 7750 4600
Wire Notes Line
	7750 4600 7450 4600
$EndSCHEMATC
